Date,Time,Open,High,Low,Close,Volume
2013-02-05,00:00:00,7901.5,8126.8,7895.5,8093.6,27051
2013-02-06,00:00:00,8115.4,8161,8013,8056.2,23681
2013-02-07,00:00:00,8081.5,8160.1,8005.6,8014.6,24211
2013-02-08,00:00:00,8025.4,8183.3,8008.7,8174.9,19971
2013-02-11,00:00:00,8181.5,8181.5,8056,8078.6,14811
2013-02-12,00:00:00,8069,8240.8,8045.1,8234.7,22571
2013-02-13,00:00:00,8257.7,8343.4,8211.9,8306.2,21451
2013-02-14,00:00:00,8272,8328.7,8155.5,8247.4,32181
2013-02-15,00:00:00,8237.3,8251.2,8150.2,8150.2,11491
2013-02-18,00:00:00,8110.9,8145.4,8037.3,8108.9,21421
2013-02-19,00:00:00,8090,8230.8,8087,8225.3,15231
2013-02-20,00:00:00,8235.1,8274.4,8146.9,8163,18291
2013-02-21,00:00:00,8117.5,8117.6,7982,8014.5,16821
2013-02-22,00:00:00,8059.3,8179,8051.1,8179,13611
2013-02-25,00:00:00,8232.7,8400.1,8135.2,8244.5,51801
2013-02-26,00:00:00,7943.2,8099.8,7911.1,7980.7,33991
2013-02-27,00:00:00,8015.9,8136.7,7966.4,8136.7,21981
2013-02-28,00:00:00,8185.8,8252.3,8142.8,8230.3,17451
2013-03-01,00:00:00,8220.5,8285.8,8105.2,8187.1,32781
2013-03-04,00:00:00,8135.1,8271.7,8129.2,8246.3,17381
2013-03-05,00:00:00,8325.4,8429.5,8313.1,8423.3,13491
2013-03-06,00:00:00,8436.2,8485,8356.3,8358.9,18011
2013-03-07,00:00:00,8393.4,8454.7,8379.9,8389.1,14531
2013-03-08,00:00:00,8444.1,8638.3,8439.8,8628.1,21301
2013-03-11,00:00:00,8605,8610.2,8495.6,8554.4,17861
2013-03-12,00:00:00,8529,8598.1,8506.7,8532.3,17951
2013-03-13,00:00:00,8502.7,8516.7,8434.9,8498.3,15921
2013-03-14,00:00:00,8532.8,8670.4,8529.6,8657.9,15651
2013-03-15,00:00:00,8645.2,8649.9,8544.5,8619.1,18471
2013-03-18,00:00:00,8383.2,8527.6,8351.8,8507.8,22701
2013-03-19,00:00:00,8499.9,8532.4,8250.5,8321,38491
2013-03-20,00:00:00,8394.3,8494.4,8327,8416.3,31281
2013-03-21,00:00:00,8412.6,8447.8,8260.8,8351.2,31261
2013-03-22,00:00:00,8321.8,8395.1,8258.9,8329.5,26471
2013-03-25,00:00:00,8434.6,8461.9,8100.3,8140.6,42921
2013-03-26,00:00:00,8175.1,8183.7,7968.2,7990.5,24641
2013-03-27,00:00:00,8038,8040.2,7822.5,7900.4,29781
2013-03-28,00:00:00,7892.9,7972,7797.2,7920,32251
2013-04-02,00:00:00,7917.6,8059,7888.1,8050.4,20901
2013-04-03,00:00:00,8015.3,8037.6,7880.2,7904.3,20381
2013-04-04,00:00:00,7966.4,8040.5,7821.7,7847.9,31911
2013-04-05,00:00:00,7880.4,7935,7716.1,7798.4,35581
2013-04-08,00:00:00,7809.8,7878.6,7774.4,7787.1,18571
2013-04-09,00:00:00,7846.6,7897.3,7811.6,7872.5,14551
2013-04-10,00:00:00,7917.6,8179,7910.2,8136.4,31881
2013-04-11,00:00:00,8127.9,8178.9,8063.1,8159.5,20001
2013-04-12,00:00:00,8084.9,8103.4,8011,8040.4,14031
2013-04-15,00:00:00,8051.7,8093.7,7941.4,8014.1,26701
2013-04-16,00:00:00,7976.8,8033.7,7934.5,7948.7,17031
2013-04-17,00:00:00,7984.7,7992.4,7743.6,7803,31591
2013-04-18,00:00:00,7843.5,7923.9,7764.2,7812.5,28841
2013-04-19,00:00:00,7888,7955.8,7851.1,7915.5,18191
2013-04-22,00:00:00,7983.8,8058.3,7927.6,8027.7,21751
2013-04-23,00:00:00,8046.4,8310.2,8031.5,8289.3,31451
2013-04-24,00:00:00,8300.2,8412.4,8287.5,8389.3,16071
2013-04-25,00:00:00,8360,8388.8,8270.2,8365.1,23211
2013-04-26,00:00:00,8323.4,8329.7,8251.5,8297,13001
2013-04-29,00:00:00,8324.7,8463.9,8324.7,8450.9,15221
2013-04-30,00:00:00,8488.8,8524.2,8397.8,8419,18301
2013-05-02,00:00:00,8393.9,8563.5,8286.6,8406.4,54131
2013-05-03,00:00:00,8445.7,8566.1,8410.3,8544.8,21251
2013-05-06,00:00:00,8551.2,8553.8,8472.6,8503.8,11501
2013-05-07,00:00:00,8541.9,8589.4,8500.1,8544,17651
2013-05-08,00:00:00,8544,8614.5,8500,8597,17601
2013-05-09,00:00:00,8597.8,8608,8536.4,8572.7,11811
2013-05-10,00:00:00,8583,8669.2,8511.7,8544.5,27651
2013-05-13,00:00:00,8554.2,8574.6,8405,8457.8,24281
2013-05-14,00:00:00,8481.2,8489.8,8366.7,8474.6,23961
2013-05-15,00:00:00,8464.7,8595.6,8438.6,8582.5,19621
2013-05-16,00:00:00,8569.9,8589.7,8521.9,8542.3,10801
2013-05-17,00:00:00,8528.1,8590,8518.4,8582.4,8891
2013-05-20,00:00:00,8585.4,8613.8,8445.4,8515.2,26661
2013-05-21,00:00:00,8500.2,8538,8398.2,8464.5,24391
2013-05-22,00:00:00,8469.5,8505.5,8381.2,8462.4,24151
2013-05-23,00:00:00,8267.7,8356.6,8243.5,8343.6,15031
2013-05-24,00:00:00,8388.8,8394.6,8216.5,8264.6,23201
2013-05-27,00:00:00,8301.4,8363.6,8297.8,8363.6,6941
2013-05-28,00:00:00,8408.5,8583.6,8398.2,8511.3,26801
2013-05-29,00:00:00,8466.2,8495.8,8424.2,8441.7,11871
2013-05-30,00:00:00,8404.4,8487.1,8395.2,8433.5,15471
2013-05-31,00:00:00,8441.4,8441.4,8304.6,8320.6,15281
2013-06-03,00:00:00,8266.6,8368.6,8191.9,8284.4,33561
2013-06-04,00:00:00,8341.4,8418.4,8337.5,8363,14021
2013-06-05,00:00:00,8308.4,8430,8283.3,8290.7,27571
2013-06-06,00:00:00,8308.6,8418.3,8216.7,8216.7,31131
2013-06-07,00:00:00,8229.2,8308.7,8165.1,8266.6,24981
2013-06-10,00:00:00,8270.8,8321.7,8184.6,8227.4,23081
2013-06-11,00:00:00,8179.6,8182.5,7980.1,8089.3,31451
2013-06-12,00:00:00,8068,8245.3,8054.5,8123.8,32581
2013-06-13,00:00:00,8039.5,8098.1,7958.6,8071.7,24681
2013-06-14,00:00:00,8101.8,8140.6,8053,8070.9,14431
2013-06-17,00:00:00,8132.7,8194.1,8072.4,8136.3,23981
2013-06-18,00:00:00,8134.4,8211,8099.3,8180.2,17761
2013-06-19,00:00:00,8178.7,8182.1,8079.1,8098.3,12561
2013-06-20,00:00:00,7973.5,8014,7786.9,7822.1,30281
2013-06-21,00:00:00,7859.7,7877,7700.1,7700.2,19431
2013-06-24,00:00:00,7682.1,7734.8,7508.4,7553.2,32391
2013-06-25,00:00:00,7646,7674.6,7581.3,7607.7,14831
2013-06-26,00:00:00,7636.6,7848,7588.7,7823,33221
2013-06-27,00:00:00,7826.7,7879.6,7709.9,7844.4,32171
2013-06-28,00:00:00,7872.5,7936.9,7724.4,7762.7,31521
2013-07-01,00:00:00,7817,7946.1,7745.5,7907.1,31111
2013-07-02,00:00:00,7934.5,7934.5,7855.6,7886.6,10991
2013-07-03,00:00:00,7763.3,7770.6,7612.8,7763.8,31511
2013-07-04,00:00:00,7802.4,8035.7,7780.8,8002,31021
2013-07-05,00:00:00,7994.6,8030.6,7847,7868.4,24101
2013-07-08,00:00:00,7922,8068.1,7895.2,8017.6,25021
2013-07-09,00:00:00,8058.1,8111.5,7965.8,8014.8,24811
2013-07-10,00:00:00,7975.6,8014.5,7896,7995,21761
2013-07-11,00:00:00,8083.2,8086.6,7980.5,8030.7,15971
2013-07-12,00:00:00,8034.9,8036.5,7800.8,7844.7,28121
2013-07-15,00:00:00,7832.4,7918.9,7782.6,7855.1,24991
2013-07-16,00:00:00,7868,7891.6,7736.6,7798.2,24021
2013-07-17,00:00:00,7814,7858.1,7702.7,7812.7,30951
2013-07-18,00:00:00,7789.6,7964.7,7781.5,7957.3,19871
2013-07-19,00:00:00,7938.6,7978.9,7887.5,7943.2,17821
2013-07-22,00:00:00,7954.9,8016.9,7917.1,7966,18851
2013-07-23,00:00:00,8014.9,8138,8011.9,8073.7,19341
2013-07-24,00:00:00,8120.2,8199.1,8095.2,8192.5,13551
2013-07-25,00:00:00,8198.5,8287.3,8152.3,8282.1,18641
2013-07-26,00:00:00,8307.8,8395.9,8303.2,8353.6,13961
2013-07-29,00:00:00,8374.6,8411.8,8349.1,8376.1,12391
2013-07-30,00:00:00,8402.5,8467.4,8363.3,8456.5,15421
2013-07-31,00:00:00,8440.7,8480.1,8375.9,8433.4,20111
2013-08-01,00:00:00,8466.3,8543.4,8431.7,8540.2,14951
2013-08-02,00:00:00,8564.8,8578.3,8489.5,8574,16841
2013-08-05,00:00:00,8585.1,8617.3,8549.6,8560.8,11111
2013-08-06,00:00:00,8567.2,8613.1,8469.9,8529.5,24871
2013-08-07,00:00:00,8508.1,8577.7,8448,8574.1,19341
2013-08-08,00:00:00,8587.5,8675.5,8581.1,8671.8,10451
2013-08-09,00:00:00,8685.3,8765.7,8628.2,8735.5,22481
2013-08-12,00:00:00,8733.5,8770.2,8692.8,8717.7,13901
2013-08-13,00:00:00,8737.6,8778.8,8695.5,8758.5,14571
2013-08-14,00:00:00,8763.4,8789.3,8706.8,8789.3,13911
2013-08-15,00:00:00,8777.1,8796.7,8633.9,8737.6,28611
2013-08-16,00:00:00,8739.3,8828.1,8710.4,8821.3,15341
2013-08-19,00:00:00,8807.8,8818.8,8641.1,8657.1,20471
2013-08-20,00:00:00,8613.2,8613.2,8422.6,8502.4,27041
2013-08-21,00:00:00,8526.3,8558,8427,8461.8,19751
2013-08-22,00:00:00,8485.2,8671.1,8476.2,8629.7,24531
2013-08-23,00:00:00,8655.4,8712.4,8575,8686.8,24341
2013-08-26,00:00:00,8669.6,8717,8590.4,8649.9,23351
2013-08-27,00:00:00,8596.5,8643.3,8378.5,8394,32711
2013-08-28,00:00:00,8367.6,8421.9,8275.9,8398.1,26151
2013-08-29,00:00:00,8433.7,8458.1,8354,8432.1,20661
2013-08-30,00:00:00,8406.2,8424.3,8290.5,8290.5,15191
2013-09-02,00:00:00,8370.2,8476.2,8369.8,8429.6,15341
2013-09-03,00:00:00,8438.5,8513.6,8331.1,8445.2,35831
2013-09-04,00:00:00,8473.3,8517.9,8358.6,8490.3,30161
2013-09-05,00:00:00,8512.8,8564.1,8473,8550,14501
2013-09-06,00:00:00,8534.3,8678.8,8524,8655,18891
2013-09-09,00:00:00,8628.9,8645.2,8568.7,8632.5,14941
2013-09-10,00:00:00,8698.1,8813.9,8678.3,8801.6,16771
2013-09-11,00:00:00,8789.5,8882.6,8761.4,8875.2,15671
2013-09-12,00:00:00,8878.2,8951.4,8861.6,8924.2,13361
2013-09-13,00:00:00,8901.1,8951.6,8863.7,8941.6,13531
2013-09-16,00:00:00,9017.5,9056.3,8960.3,8999.5,17401
2013-09-17,00:00:00,8992.5,9005.5,8911.7,8992,18711
2013-09-18,00:00:00,9019.4,9072.4,8995.5,9062.5,11071
2013-09-19,00:00:00,9193.1,9198.7,9096.1,9153.7,16581
2013-09-20,00:00:00,9121.9,9171.8,9118.4,9171.8,5691
2013-09-23,00:00:00,9163.8,9187.8,9057.5,9109.5,20631
2013-09-24,00:00:00,9109.7,9171.7,9076.4,9167.6,13271
2013-09-25,00:00:00,9154.7,9249.5,9120.1,9242.9,17061
2013-09-26,00:00:00,9253.6,9285.9,9176.4,9272.4,20021
2013-09-27,00:00:00,9283.1,9299.1,9191.6,9228.4,16031
2013-09-30,00:00:00,9073.2,9199.7,9036.9,9186.1,21271
2013-10-01,00:00:00,9177.6,9346.9,9173.4,9341.5,18311
2013-10-02,00:00:00,9315.7,9378.2,9272.9,9350,17631
2013-10-03,00:00:00,9367.6,9383.4,9260.4,9295.7,17411
2013-10-04,00:00:00,9289,9432.7,9267.6,9420.9,19831
2013-10-07,00:00:00,9380.4,9389.2,9321.6,9381.9,13371
2013-10-08,00:00:00,9388.2,9410.8,9311.3,9318.9,12971
2013-10-09,00:00:00,9302.4,9470.8,9295.6,9439,21381
2013-10-10,00:00:00,9499.5,9695.1,9485.7,9660.5,25781
2013-10-11,00:00:00,9707.3,9707.3,9624.4,9668.5,12701
2013-10-14,00:00:00,9631.7,9701,9615.3,9696,10711
2013-10-15,00:00:00,9733.6,9805.3,9699.2,9805.3,14051
2013-10-16,00:00:00,9733.1,9890.7,9724,9879,18751
2013-10-17,00:00:00,9854.9,9918.4,9817.1,9918,13951
2013-10-18,00:00:00,9946.6,10002.6,9915.5,10001.8,11901
2013-10-21,00:00:00,10019.6,10063.9,9966,10037.8,17761
2013-10-22,00:00:00,10022.3,10054.9,9992.9,10012.9,11461
2013-10-23,00:00:00,9960.3,9965.1,9792.3,9828.3,21361
2013-10-24,00:00:00,9808,9915.4,9808,9915.4,10741
2013-10-25,00:00:00,9856,9887.5,9772.3,9815.5,18991
2013-10-28,00:00:00,9840,9864,9675,9736.2,27421
2013-10-29,00:00:00,9699.7,9873,9665.6,9863.9,25061
2013-10-30,00:00:00,9862.9,9980.2,9744.1,9778.7,38801
2013-10-31,00:00:00,9754.8,9909.9,9739.3,9907.9,18811
2013-11-01,00:00:00,9906.6,9929.1,9816.5,9838.3,15691
2013-11-04,00:00:00,9873.9,9917.3,9827.3,9873.8,17991
2013-11-05,00:00:00,9916,9923.9,9731.9,9795.7,26371
2013-11-06,00:00:00,9804.2,9887.4,9781.2,9837.1,17951
2013-11-07,00:00:00,9835.7,10025.9,9712.6,9740.4,53131
2013-11-08,00:00:00,9684.9,9778.6,9613.6,9747.2,26771
2013-11-11,00:00:00,9757.2,9819.6,9670,9789.5,26691
2013-11-12,00:00:00,9780.1,9824.1,9684.1,9707.6,20751
2013-11-13,00:00:00,9674.7,9740.8,9615.2,9675.2,25071
2013-11-14,00:00:00,9769.1,9784.8,9610.4,9708.7,28841
2013-11-15,00:00:00,9716.9,9749.3,9650.4,9695.9,17681
2013-11-18,00:00:00,9679.6,9853.6,9640.7,9783.1,32231
2013-11-19,00:00:00,9750.1,9751.7,9626.2,9629.8,13071
2013-11-20,00:00:00,9615,9636.1,9507,9559.5,20271
2013-11-21,00:00:00,9502.8,9614.5,9467,9599.3,19851
2013-11-22,00:00:00,9622.7,9701.8,9588,9677.4,17291
2013-11-25,00:00:00,9724.5,9753.9,9656.5,9689.1,15941
2013-11-26,00:00:00,9692.2,9743.2,9659.8,9714.6,14441
2013-11-27,00:00:00,9750.2,9828.1,9706.5,9808.4,18501
2013-11-28,00:00:00,9823.1,9892.9,9814.2,9859.8,12071
2013-11-29,00:00:00,9876,9923.3,9824.6,9837.6,15901
2013-12-02,00:00:00,9838.2,9852.7,9715.6,9745.5,18151
2013-12-03,00:00:00,9743.9,9743.9,9605,9605,13891
2013-12-04,00:00:00,9616.6,9654.1,9496.6,9540.5,23891
2013-12-05,00:00:00,9528.1,9583,9384.7,9392.1,26061
2013-12-06,00:00:00,9406.2,9418.9,9232.1,9400.5,36791
2013-12-09,00:00:00,9414.4,9499,9389.9,9487.4,14521
2013-12-10,00:00:00,9469.9,9556.1,9418.5,9438.3,24361
2013-12-11,00:00:00,9453.3,9493.1,9355.1,9358.7,18141
2013-12-12,00:00:00,9340.5,9370.5,9245.3,9272.1,18201
2013-12-13,00:00:00,9262.4,9361.2,9242.9,9272.7,22631
2013-12-16,00:00:00,9270.3,9463.8,9264.7,9429.5,23901
2013-12-17,00:00:00,9395,9425.3,9343.4,9343.4,11221
2013-12-18,00:00:00,9398.2,9456.7,9348.3,9443.6,17141
2013-12-19,00:00:00,9537,9664.3,9535.8,9664.3,12971
2013-12-20,00:00:00,9681.8,9721.9,9623.4,9689.9,18891
2013-12-23,00:00:00,9696.1,9758.4,9650.5,9758.4,15351
2013-12-24,00:00:00,9767.3,9826.4,9756.3,9819.5,8801
2013-12-27,00:00:00,9839.7,9900.1,9826.3,9900.1,8721
2013-12-30,00:00:00,9919.5,9949.8,9864.8,9901.9,15241
2013-12-31,00:00:00,9910.5,9923.3,9881.7,9916.7,7701
2014-01-02,00:00:00,9923.6,9952,9758.4,9760.3,22391
2014-01-03,00:00:00,9765,9830.1,9722.5,9798,18221
2014-01-06,00:00:00,9768.4,9928.7,9766.4,9888.5,20451
2014-01-07,00:00:00,9912.5,10188.5,9881.9,10178.7,34701
2014-01-08,00:00:00,10190.4,10282,10117.2,10253.6,26641
2014-01-09,00:00:00,10255.7,10383,10186.3,10234.2,37191
2014-01-10,00:00:00,10293.6,10361.8,10248.8,10290.6,22301
2014-01-13,00:00:00,10336.3,10396,10298.3,10365.5,16621
2014-01-14,00:00:00,10274.1,10382,10223.1,10382,20991
2014-01-15,00:00:00,10380.8,10529.8,10368.4,10525,17861
2014-01-16,00:00:00,10532.2,10552.7,10441.4,10455.5,14591
2014-01-17,00:00:00,10453.7,10501.8,10393.5,10465.7,20461
2014-01-20,00:00:00,10440,10485.9,10403.5,10454.1,15071
2014-01-21,00:00:00,10469.8,10510.5,10344.2,10357.4,22021
2014-01-22,00:00:00,10399.5,10440.5,10241.5,10279.7,27821
2014-01-23,00:00:00,10254.1,10350.9,10215.8,10241.2,25731
2014-01-24,00:00:00,10214.7,10240.8,9835.5,9868.9,46481
2014-01-27,00:00:00,9877,9915.9,9725.7,9758.4,26181
2014-01-28,00:00:00,9838.7,9922.8,9802.5,9879.1,20021
2014-01-29,00:00:00,9986.1,10054.1,9716.5,9896.2,58531
2014-01-30,00:00:00,9890.7,9995.5,9775.7,9964.5,36581
2014-01-31,00:00:00,9974.4,9993.2,9761.8,9920.2,40861
2014-02-03,00:00:00,9911.5,9980.1,9712.5,9725.4,34911
2014-02-04,00:00:00,9684.7,9814.2,9654.8,9754.3,24921
2014-02-05,00:00:00,9752.4,9837.5,9700.4,9775,25161
2014-02-06,00:00:00,9840.7,9983.7,9807.2,9964.6,22911
2014-02-07,00:00:00,9996,10086.7,9910.7,10072.4,27561
2014-02-10,00:00:00,10114.2,10117.8,9943.8,9982.7,21651
2014-02-11,00:00:00,10044.8,10091.2,9985,10091.2,16601
2014-02-12,00:00:00,10126.1,10151.3,10041.3,10080.8,17471
2014-02-13,00:00:00,10046.2,10098.9,9950,10098.9,24511
2014-02-14,00:00:00,10111,10184.7,10057.8,10132.8,23201
2014-02-17,00:00:00,10155.1,10181.9,10084.6,10118.6,15811
2014-02-18,00:00:00,10109.5,10114.5,9988.8,10042.7,18461
2014-02-19,00:00:00,10021.3,10102.7,9945.9,10053.8,28111
2014-02-20,00:00:00,9945.5,10062.2,9918.5,10062.2,17071
2014-02-21,00:00:00,10104.1,10108.8,10009.2,10071,16611
2014-02-24,00:00:00,10060.2,10193.1,10035.3,10193.1,18271
2014-02-25,00:00:00,10176.1,10242.7,10150.9,10242.5,11721
2014-02-26,00:00:00,10243.9,10269,10191.7,10224.3,13501
2014-02-27,00:00:00,10213.3,10228.1,10063.9,10164.1,27921
2014-02-28,00:00:00,10172.4,10174.2,9996.1,10114.2,29801
2014-03-03,00:00:00,9951.6,9991.6,9855.1,9878.7,20011
2014-03-04,00:00:00,9991.1,10126.7,9955.2,10126.7,20741
2014-03-05,00:00:00,10104.9,10249.6,10089.1,10215.2,21071
2014-03-06,00:00:00,10251,10358.9,10247.5,10304,16981
2014-03-07,00:00:00,10327.5,10345.3,10147.6,10164.2,23211
2014-03-10,00:00:00,10151.4,10292,10119.1,10194.6,30261
2014-03-11,00:00:00,10234.9,10245,10137.9,10163.3,14261
2014-03-12,00:00:00,10128.6,10169,9984.2,10070.4,31141
2014-03-13,00:00:00,10112.3,10117.8,9950.3,9950.3,17301
2014-03-14,00:00:00,9881.4,9944.3,9703.1,9812,41301
2014-03-17,00:00:00,9822.9,9992.5,9811.2,9975,21051
2014-03-18,00:00:00,9975.1,10109.3,9902.8,10051.4,33671
2014-03-19,00:00:00,10085.5,10135.5,10022.8,10093.3,21761
2014-03-20,00:00:00,10008,10085.5,9970.9,10079.9,15731
2014-03-21,00:00:00,10094.8,10157.5,10042.4,10053.1,18851
2014-03-24,00:00:00,10061.7,10090,9868.7,9913.1,29401
2014-03-25,00:00:00,9939.8,10035.2,9885.6,9990.5,24851
2014-03-26,00:00:00,10029,10180.4,9994.1,10140.8,26081
2014-03-27,00:00:00,10118.2,10204.4,10087.1,10199,15381
2014-03-28,00:00:00,10239.8,10341.9,10208.8,10328.9,17711
2014-03-31,00:00:00,10349.6,10420.6,10325.9,10340.5,18031
2014-04-01,00:00:00,10368.1,10487.6,10359.5,10463.1,16121
2014-04-02,00:00:00,10477.8,10503.7,10391.3,10435.8,18281
2014-04-03,00:00:00,10462.2,10644.4,10451.5,10584.1,26391
2014-04-04,00:00:00,10612.5,10705.1,10572.3,10677.2,20091
2014-04-07,00:00:00,10594.1,10678.2,10561.3,10606.2,22171
2014-04-08,00:00:00,10611.4,10626.6,10384.1,10480.5,35411
2014-04-09,00:00:00,10493.4,10571.5,10477.2,10485.2,18041
2014-04-10,00:00:00,10523.7,10536.6,10326.4,10336.1,23281
2014-04-11,00:00:00,10272.3,10332.1,10091.1,10205.4,41511
2014-04-14,00:00:00,10097.7,10191.3,9984.3,10188.2,32351
2014-04-15,00:00:00,10199.8,10247.8,10071.6,10103.5,25611
2014-04-16,00:00:00,10210.6,10267.9,10179.4,10267.9,11971
2014-04-17,00:00:00,10290.6,10316.2,10184.9,10292.4,26081
2014-04-22,00:00:00,10339.1,10449,10279.7,10437.8,23991
2014-04-23,00:00:00,10439.3,10482.5,10394.9,10424.4,16031
2014-04-24,00:00:00,10487,10531.1,10338.7,10462,35981
2014-04-25,00:00:00,10398.5,10442.9,10281,10306.2,23151
2014-04-28,00:00:00,10351.3,10391.3,10247.9,10320.9,25641
2014-04-29,00:00:00,10348.5,10488.5,10342.6,10461,17931
2014-04-30,00:00:00,10424.7,10500.4,10397.7,10459,17111
2014-05-02,00:00:00,10453.6,10541,10441.3,10474.5,17851
2014-05-05,00:00:00,10460.2,10502.7,10342.5,10477,30361
2014-05-06,00:00:00,10504.9,10549.2,10414.8,10481.4,24531
2014-05-07,00:00:00,10402,10494.5,10371.5,10413.8,23421
2014-05-08,00:00:00,10448.9,10597.9,10412.5,10591.2,22851
2014-05-09,00:00:00,10573,10592.6,10438.7,10487.2,22201
2014-05-12,00:00:00,10512.4,10578.2,10478.2,10567,14541
2014-05-13,00:00:00,10587.3,10600.9,10533.4,10587.2,13491
2014-05-14,00:00:00,10602.8,10639.1,10521.6,10613.9,22391
2014-05-15,00:00:00,10616.5,10665.1,10323.4,10365,43191
2014-05-16,00:00:00,10354.1,10494.9,10282.4,10478.7,30041
2014-05-19,00:00:00,10469.7,10526,10307.3,10425.5,39321
2014-05-20,00:00:00,10418.4,10479,10401.6,10453.8,11941
2014-05-21,00:00:00,10407.4,10547.5,10364.1,10531.4,24281
2014-05-22,00:00:00,10552.1,10558,10474.9,10520.6,13471
2014-05-23,00:00:00,10525.5,10576.5,10466,10558.9,18761
2014-05-26,00:00:00,10593.8,10695.5,10576.3,10687.5,14471
2014-05-27,00:00:00,10669.3,10744.8,10659.4,10714.2,12591
2014-05-28,00:00:00,10701.5,10757.2,10672.2,10757.2,11431
2014-05-29,00:00:00,10755.7,10770.3,10665,10734.8,18971
2014-05-30,00:00:00,10708.1,10803.4,10697.8,10798.7,12061
2014-06-02,00:00:00,10819,10877.4,10800.2,10827.4,14601
2014-06-03,00:00:00,10838.3,10873.6,10744.3,10776.7,19701
2014-06-04,00:00:00,10756.2,10775.1,10667.2,10755.6,21521
2014-06-05,00:00:00,10761,10970,10714.2,10876.4,39621
2014-06-06,00:00:00,10917.6,11085.1,10888.4,11064.3,24671
2014-06-09,00:00:00,11089.8,11188.2,11057.7,11164.1,18671
2014-06-10,00:00:00,11136.6,11177.6,11095.6,11153.5,14711
2014-06-11,00:00:00,11134.4,11167.8,11045.2,11074.9,18571
2014-06-12,00:00:00,11081.7,11137.3,11046,11088.5,17581
2014-06-13,00:00:00,11079,11134.3,11010,11113.7,21391
2014-06-16,00:00:00,11055,11099.2,10971.7,11008.2,20821
2014-06-17,00:00:00,11031.1,11093.5,11013,11058.5,13361
2014-06-18,00:00:00,11082.4,11130.8,11052.7,11112.3,12631
2014-06-19,00:00:00,11192.4,11249.4,11158.8,11187.8,17661
2014-06-20,00:00:00,11174.9,11215.8,11142.6,11155.1,12661
2014-06-23,00:00:00,11163.4,11185.1,11093.9,11118.3,13731
2014-06-24,00:00:00,11147.6,11168.8,11082.5,11105.9,13091
2014-06-25,00:00:00,11058.1,11069.5,10890.2,10966.7,26721
2014-06-26,00:00:00,11006,11046.4,10910.8,10989,25421
2014-06-27,00:00:00,11010.2,11059.8,10924.2,10959.9,22091
2014-06-30,00:00:00,10975.6,10996.3,10850.6,10923.5,23931
2014-07-01,00:00:00,10954.5,11007.8,10911.9,11007.8,13851
2014-07-02,00:00:00,11009,11037.5,10955.2,11016.2,15741
2014-07-03,00:00:00,11001.7,11100.2,10958.1,11090,19591
2014-07-04,00:00:00,11082.7,11084,11004.8,11009.4,8511
2014-07-07,00:00:00,10986,11005.2,10874.5,10888.5,16391
2014-07-08,00:00:00,10898.7,10920.9,10663,10689.1,30621
2014-07-09,00:00:00,10736.4,10771,10680.9,10746.9,16971
2014-07-10,00:00:00,10743.6,10743.6,10423.6,10533.6,43001
2014-07-11,00:00:00,10563.7,10681.5,10489.8,10538.8,35851
2014-07-14,00:00:00,10602.5,10640,10526.6,10606.3,22301
2014-07-15,00:00:00,10545.1,10581.4,10427.7,10475.9,23821
2014-07-16,00:00:00,10522.2,10680.2,10496.6,10668.4,22101
2014-07-17,00:00:00,10617.6,10643,10507.8,10543.3,19611
2014-07-18,00:00:00,10477.5,10527,10425.3,10527,15391
2014-07-21,00:00:00,10521.7,10530.6,10447.6,10482,12631
2014-07-22,00:00:00,10531,10667.9,10504.7,10648.9,20851
2014-07-23,00:00:00,10624.2,10700,10604.8,10659.1,15551
2014-07-24,00:00:00,10668.3,10860.7,10618.1,10860.7,29281
2014-07-25,00:00:00,10839.6,10941.9,10832.1,10888.1,17111
2014-07-28,00:00:00,10940.5,10963.9,10801.6,10879.8,26391
2014-07-29,00:00:00,10901.6,10964.3,10854.2,10901.2,21981
2014-07-30,00:00:00,10927.8,11016.1,10888.6,10937.4,24541
2014-07-31,00:00:00,10934.9,10943.9,10663.3,10707.2,33351
2014-08-01,00:00:00,10682.8,10701.4,10478.3,10514,27741
2014-08-04,00:00:00,10585.8,10589.4,10463.9,10496.2,16141
2014-08-05,00:00:00,10524.7,10534.7,10314.4,10353.8,26971
2014-08-06,00:00:00,10282,10330.3,10121.5,10246.2,38181
2014-08-07,00:00:00,10235.8,10258.9,10049.9,10078.6,26081
2014-08-08,00:00:00,9981.2,10183,9946.9,10104.8,34861
2014-08-11,00:00:00,10226.6,10245.7,10148.6,10193.5,16111
2014-08-12,00:00:00,10195.9,10324.1,10161.9,10241.5,27881
2014-08-13,00:00:00,10304.1,10330.2,10250.5,10304,15931
2014-08-14,00:00:00,10274.1,10339.2,10210.7,10294.8,23631
2014-08-15,00:00:00,10320.8,10417.7,10203.7,10222.2,32941
2014-08-18,00:00:00,10350.4,10372.2,10284.1,10353.4,17321
2014-08-19,00:00:00,10407.5,10416.6,10367.2,10386.5,7781
2014-08-20,00:00:00,10390.6,10428.1,10338.3,10420.9,14931
2014-08-21,00:00:00,10429.8,10569.3,10386.7,10556.4,23861
2014-08-22,00:00:00,10582.1,10588.7,10436.4,10500.2,22271
2014-08-25,00:00:00,10607.1,10695.7,10563.6,10690.1,18121
2014-08-26,00:00:00,10672.4,10835.5,10669.4,10826.9,17771
2014-08-27,00:00:00,10821.9,10883.8,10787.4,10837.4,17731
2014-08-28,00:00:00,10808.5,10844.4,10688,10722.2,22651
2014-08-29,00:00:00,10742.7,10785.3,10614.5,10728.8,32771
2014-09-01,00:00:00,10749.2,10784.1,10693.9,10746.5,17771
2014-09-02,00:00:00,10768.5,10822.6,10736.4,10755,15891
2014-09-03,00:00:00,10799.2,10927.2,10783.4,10886.8,20001
2014-09-04,00:00:00,10853.8,11146.6,10835.4,11100.1,37611
2014-09-05,00:00:00,11085.5,11182,11062.2,11148.9,17621
2014-09-08,00:00:00,11158.4,11163,11043,11102.6,18421
2014-09-09,00:00:00,11060.2,11080.6,10939.7,10951.6,17321
2014-09-10,00:00:00,10909.9,10937.8,10821.3,10937.8,20511
2014-09-11,00:00:00,10951.9,10963.5,10823.9,10886.3,21361
2014-09-12,00:00:00,10895.7,10930.2,10838.9,10888.9,17581
2014-09-15,00:00:00,10849.8,10894.8,10815.2,10841.3,15071
2014-09-16,00:00:00,10829.9,10836.7,10737.3,10798.7,16761
2014-09-17,00:00:00,10855,10939.2,10818.1,10907.4,18981
2014-09-18,00:00:00,10931.8,11016.5,10899.2,10991,17541
2014-09-19,00:00:00,11108.9,11191.8,11001.9,11001.9,27281
2014-09-22,00:00:00,10961.9,11026.5,10930.5,10947.9,17801
2014-09-23,00:00:00,10918.9,10918.9,10781.2,10801.8,15831
2014-09-24,00:00:00,10798.9,10860.5,10679.2,10856.9,30461
2014-09-25,00:00:00,10847.8,10948.6,10733.1,10783.1,36631
2014-09-26,00:00:00,10770.6,10891,10701.2,10851.4,29881
2014-09-29,00:00:00,10828.2,10852.7,10625.5,10686,31221
2014-09-30,00:00:00,10724.5,10860.1,10714,10825.5,19121
2014-10-01,00:00:00,10793.9,10889.3,10734.6,10753.2,26871
2014-10-02,00:00:00,10742.5,10769.3,10418.1,10418.1,37801
2014-10-03,00:00:00,10561,10582,10436.4,10567.6,28461
2014-10-06,00:00:00,10657.6,10728.8,10632.5,10645.7,18071
2014-10-07,00:00:00,10610,10610,10422.1,10430.7,19651
2014-10-08,00:00:00,10384.6,10460.9,10320,10339,23621
2014-10-09,00:00:00,10465.3,10470.8,10201,10273.7,34801
2014-10-10,00:00:00,10186.7,10290.9,10102.4,10150.5,34081
2014-10-13,00:00:00,10072.4,10274.8,10042.2,10187.3,35031
2014-10-14,00:00:00,10138.1,10236.8,10016.5,10204.9,37381
2014-10-15,00:00:00,10204.7,10225.6,9774.9,9838.5,53521
2014-10-16,00:00:00,9897.2,9942,9370.5,9669.7,91551
2014-10-17,00:00:00,9723,9977.4,9651.1,9956.8,41881
2014-10-20,00:00:00,9898.9,9958.9,9802.8,9915.2,29591
2014-10-21,00:00:00,9893.5,10167.8,9851.5,10152.1,37401
2014-10-22,00:00:00,10169.6,10249.9,10067,10249.9,28551
2014-10-23,00:00:00,10202.7,10359,10127,10333.7,33301
2014-10-24,00:00:00,10299.4,10369,10260.7,10339.3,17671
2014-10-27,00:00:00,10469.4,10474.8,10093.4,10195.2,48861
2014-10-28,00:00:00,10260.2,10423.4,10248.6,10394.8,21501
2014-10-29,00:00:00,10406,10441.1,10204.8,10247.8,31441
2014-10-30,00:00:00,10304.6,10340.3,9994.8,10263.7,65011
2014-10-31,00:00:00,10448.4,10513.3,10324.8,10477.8,34761
2014-11-03,00:00:00,10454.3,10508.8,10333.3,10374.4,27111
2014-11-04,00:00:00,10361,10455.2,10140.5,10154.4,42281
2014-11-05,00:00:00,10246.6,10310.6,10131.2,10276.9,32851
2014-11-06,00:00:00,10242.7,10463.3,10175.3,10261.8,55691
2014-11-07,00:00:00,10291,10311.5,10017.5,10126.3,42331
2014-11-10,00:00:00,10103.9,10282.4,10052.2,10273,29131
2014-11-11,00:00:00,10319.8,10418.4,10296.1,10338.8,22561
2014-11-12,00:00:00,10307,10342.6,10136.4,10157.3,26271
2014-11-13,00:00:00,10207.6,10252.3,10044.2,10140.4,34901
2014-11-14,00:00:00,10192.3,10195.1,10056.8,10148,23231
2014-11-17,00:00:00,10061.1,10336.3,10040.9,10309,34291
2014-11-18,00:00:00,10320.1,10466.3,10296.3,10432.9,22721
2014-11-19,00:00:00,10395.8,10451.8,10328.9,10376.8,22681
2014-11-20,00:00:00,10351.5,10351.5,10132.2,10209.2,29631
2014-11-21,00:00:00,10225.6,10542.5,10209,10520.8,37181
2014-11-24,00:00:00,10558.7,10715.1,10528.8,10642.5,28881
2014-11-25,00:00:00,10621.9,10792.3,10609.4,10699.6,28811
2014-11-26,00:00:00,10723.2,10736.4,10610.1,10647,17641
2014-11-27,00:00:00,10660.4,10745.4,10629.1,10727.6,16541
2014-11-28,00:00:00,10722.3,10772.2,10656.5,10770.7,18301
2014-12-01,00:00:00,10700.6,10757.6,10648.2,10672.8,19101
2014-12-02,00:00:00,10701.1,10763,10653.2,10749.2,17151
2014-12-03,00:00:00,10776.1,10903.1,10754.9,10875.9,19661
2014-12-04,00:00:00,10902.7,10928.3,10587,10619.9,39981
2014-12-05,00:00:00,10756.4,10906.1,10718.1,10900.7,23171
2014-12-08,00:00:00,10864.6,10919.3,10805.2,10805.2,16881
2014-12-09,00:00:00,10704.3,10707.3,10461.2,10461.6,24951
2014-12-10,00:00:00,10536.3,10593.3,10347.2,10396.9,35281
2014-12-11,00:00:00,10397.4,10505.8,10322.7,10431.8,33181
2014-12-12,00:00:00,10358.2,10407.5,10127.5,10145,34681
2014-12-15,00:00:00,10149.6,10268.2,9900.3,9903.9,49011
2014-12-16,00:00:00,9954.2,10095.1,9661,10081.9,74051
2014-12-17,00:00:00,9990.7,10100.5,9916.9,10049.5,30841
2014-12-18,00:00:00,10218,10391.3,10167.2,10391.3,27491
2014-12-19,00:00:00,10483.4,10500.1,10186.7,10363.6,50701
2014-12-22,00:00:00,10387.5,10458,10294.9,10371,30971
2014-12-23,00:00:00,10380.2,10477.7,10314.4,10477.7,22911
2014-12-24,00:00:00,10456.1,10495.9,10437.8,10481.8,9051
2014-12-29,00:00:00,10427.8,10446.3,10216.2,10394.2,42661
2014-12-30,00:00:00,10365.4,10365.4,10269.4,10279.2,10581
2014-12-31,00:00:00,10260.2,10305.8,10253.5,10279.5,8531
2015-01-02,00:00:00,10386.7,10440.3,10232.3,10350.8,38011
2015-01-05,00:00:00,10267.2,10390.8,9977.8,9993.3,55211
2015-01-06,00:00:00,10040.7,10060.8,9871.1,9871.1,20981
2015-01-07,00:00:00,9937.3,10051.2,9836.4,9891.4,38371
2015-01-08,00:00:00,10053.2,10143,9970.3,10115,28361
2015-01-09,00:00:00,10080,10080,9610.1,9719,57881
2015-01-12,00:00:00,9805.5,9882.1,9682.1,9797.5,39201
2015-01-13,00:00:00,9762.4,9996.1,9757.3,9966,27401
2015-01-14,00:00:00,9801.7,10013.8,9778.9,9846,42551
2015-01-15,00:00:00,9953.1,10008.9,9646.4,9982.5,69561
2015-01-16,00:00:00,9948.6,10060.2,9882.1,10038.9,26591
2015-01-19,00:00:00,10091.3,10193.8,10036.7,10157.5,24801
2015-01-20,00:00:00,10194.9,10332.3,10186.7,10283.9,20221
2015-01-21,00:00:00,10325,10340.3,10147,10335.3,37631
2015-01-22,00:00:00,10382.2,10560.9,10339.6,10510.6,31421
2015-01-23,00:00:00,10604.9,10693,10532.4,10581.5,29781
2015-01-26,00:00:00,10502.6,10716.9,10451,10696.1,33831
2015-01-27,00:00:00,10669.5,10707.1,10528.1,10598.9,28741
2015-01-28,00:00:00,10676.6,10687,10395.6,10456.9,36311
2015-01-29,00:00:00,10391.2,10513.1,10320.8,10507.6,26821
2015-01-30,00:00:00,10562.6,10581.6,10336.1,10403.3,33171
2015-02-02,00:00:00,10396.6,10401,10136.4,10328.1,46071
2015-02-03,00:00:00,10426.8,10634.2,10414.6,10598.2,26781
2015-02-04,00:00:00,10620.9,10688,10497.4,10577.8,33811
2015-02-05,00:00:00,10451.7,10535.5,10388.9,10535.5,20941
2015-02-06,00:00:00,10547.1,10606.8,10497.5,10573.1,19261
2015-02-09,00:00:00,10467.8,10473.3,10289.7,10364.9,26431
2015-02-10,00:00:00,10389.8,10561.4,10338.6,10500.1,33531
2015-02-11,00:00:00,10496.1,10516.5,10342.8,10364.8,21611
2015-02-12,00:00:00,10349.6,10607.1,10328.5,10562.2,34461
2015-02-13,00:00:00,10618.5,10794.9,10606.7,10739.5,25541
2015-02-16,00:00:00,10717.8,10793.1,10679.9,10689.5,19811
2015-02-17,00:00:00,10591.6,10730.1,10526.6,10698,30061
2015-02-18,00:00:00,10764.6,10852.6,10764.1,10805.3,13631
2015-02-19,00:00:00,10781,10918.4,10726.3,10910.4,25481
2015-02-20,00:00:00,10889.8,10916.8,10759,10879.3,30511
2015-02-23,00:00:00,11001.3,11015.4,10935.1,10990.1,14941
2015-02-24,00:00:00,11027.7,11082.7,10951.1,11064.5,22641
2015-02-25,00:00:00,11027.9,11072.5,11011.7,11049.5,10001
2015-02-26,00:00:00,11023.3,11145.9,11014.4,11139.5,14681
2015-02-27,00:00:00,11142.9,11184.5,11070.8,11178.3,19201
2015-03-02,00:00:00,11190.5,11239.8,11123.3,11178.5,22101
2015-03-03,00:00:00,11197.6,11212.8,11001.7,11014.7,23931
2015-03-04,00:00:00,11048.1,11079.3,10921.4,11051.3,31261
2015-03-05,00:00:00,11078.1,11154.3,11039.2,11124.4,18391
2015-03-06,00:00:00,11144.5,11158.9,11070.2,11091.9,12481
2015-03-09,00:00:00,11007.9,11078.8,10962.4,11054.2,18651
2015-03-10,00:00:00,11060.5,11081.2,10858.4,10902.2,88758
2015-03-11,00:00:00,10944.8,11048,10908.2,11021.8,76048
2015-03-12,00:00:00,11023.2,11068,10993.1,11011.8,64028
2015-03-13,00:00:00,11074.1,11077.4,10993.6,11033.8,62498
2015-03-16,00:00:00,11084.3,11146.3,11079.4,11114.7,54498
2015-03-17,00:00:00,11118.7,11128.3,10953.8,11028.1,84198
2015-03-18,00:00:00,11056.9,11075.8,10958.2,11050,92288
2015-03-19,00:00:00,11063.6,11146,11040.3,11091,78858
2015-03-20,00:00:00,11110.1,11457.4,11091,11419.6,86008
2015-03-23,00:00:00,11393.4,11465.3,11364.7,11452.8,77688
2015-03-24,00:00:00,11425.1,11618.3,11410.5,11579.3,66668
2015-03-25,00:00:00,11560.3,11591.3,11449.3,11464.7,82418
2015-03-26,00:00:00,11393.2,11453.8,11295.8,11453.8,102398
2015-03-27,00:00:00,11483.1,11524,11403.9,11427.4,94568
2015-03-30,00:00:00,11454.1,11542.9,11435.1,11529.1,57348
2015-03-31,00:00:00,11508,11595.9,11445.5,11521.1,77958
2015-04-01,00:00:00,11479.9,11662.5,11454.9,11569.8,93248
2015-04-02,00:00:00,11571.1,11649.4,11561,11634,48278
2015-04-07,00:00:00,11702.5,11771.5,11672.1,11730.5,57268
2015-04-08,00:00:00,11736.3,11771.3,11616.5,11655.5,57728
2015-04-09,00:00:00,11691,11747.2,11655.2,11734.6,50018
2015-04-10,00:00:00,11747.8,11777.4,11679.4,11749.3,59118
2015-04-13,00:00:00,11762.5,11883.6,11760.9,11866.4,50938
2015-04-14,00:00:00,11801.5,11862.4,11645.8,11704.7,79478
2015-04-15,00:00:00,11738.2,11815.4,11710.5,11778.4,56818
2015-04-16,00:00:00,11758.1,11767.2,11581.4,11611.7,77648
2015-04-17,00:00:00,11548.3,11597.6,11301,11359.4,120738
2015-04-20,00:00:00,11409.9,11418.8,11306.6,11384.6,78018
2015-04-21,00:00:00,11444.7,11503.9,11368.5,11422.3,95708
2015-04-22,00:00:00,11459.6,11480,11276.4,11399.2,108158
2015-04-23,00:00:00,11415.9,11461,11291.8,11425.8,108698
2015-04-24,00:00:00,11466.2,11605.2,11435.1,11505.4,104638
2015-04-27,00:00:00,11533.4,11679.6,11365.7,11640.2,98138
2015-04-28,00:00:00,11654.4,11684.3,11543.3,11607.7,89478
2015-04-29,00:00:00,11614.8,11651.1,11371.8,11378.9,128058
2015-04-30,00:00:00,11347.1,11468.8,11259.1,11385,118938
2015-05-04,00:00:00,11377.1,11501.6,11280.5,11429.1,96648
2015-05-05,00:00:00,11417,11502.4,11104.2,11115.6,119378
2015-05-06,00:00:00,11098.5,11232.6,11050,11163.6,150178
2015-05-07,00:00:00,11121.2,11214.7,10928.2,11180.3,150938
2015-05-08,00:00:00,11263.4,11424.7,11213,11424.7,86678
2015-05-11,00:00:00,11433.6,11481.6,11378,11445.8,79498
2015-05-12,00:00:00,11327.2,11354,11222.1,11322.6,113798
2015-05-13,00:00:00,11366.6,11430.9,11282.7,11324.6,95278
2015-05-14,00:00:00,11303.1,11428.1,11205.9,11398.7,103828
2015-05-15,00:00:00,11435.8,11435.8,11266.1,11317.3,91868
2015-05-18,00:00:00,11336.9,11367.4,11203.6,11345,102958
2015-05-19,00:00:00,11411.7,11537.7,11406.3,11497.7,79868
2015-05-20,00:00:00,11509.8,11588.4,11460.6,11574.1,65068
2015-05-21,00:00:00,11517.8,11595.4,11516.3,11595.4,57788
2015-05-22,00:00:00,11593.3,11609.8,11534,11554.2,59778
2015-05-25,00:00:00,11416.5,11453.5,11262.1,11322.3,53518
2015-05-26,00:00:00,11297.1,11344.6,11170.5,11240.3,106868
2015-05-27,00:00:00,11283.2,11467.5,11247.4,11431.1,90098
2015-05-28,00:00:00,11378.4,11450.7,11292.4,11382.8,83188
2015-05-29,00:00:00,11375.7,11402.7,11193.4,11217.6,106798
2015-06-01,00:00:00,11270.7,11342.8,11180.5,11238.1,116668
2015-06-02,00:00:00,11316.1,11368.6,11152.2,11271.4,119208
2015-06-03,00:00:00,11301.2,11361.4,11201.6,11267.6,110338
2015-06-04,00:00:00,11201.6,11292.7,11071.4,11146.1,121568
2015-06-05,00:00:00,11058.2,11127.8,10984.7,11062,104908
2015-06-08,00:00:00,11023.2,11055.7,10917.3,10917.3,88288
2015-06-09,00:00:00,10887.9,10945,10750.7,10938.1,107888
2015-06-10,00:00:00,10881.2,11137.4,10855.8,11097.5,106358
2015-06-11,00:00:00,11093.8,11231,11086.3,11156.7,94388
2015-06-12,00:00:00,11124.7,11158.7,10933.2,11030.5,117168
2015-06-15,00:00:00,10889.4,10938.8,10776.2,10842.1,106788
2015-06-16,00:00:00,10768.2,10895,10660,10871.4,117938
2015-06-17,00:00:00,10894.8,10933.5,10780.5,10813.4,102558
2015-06-18,00:00:00,10793.5,10888.3,10654.3,10871.9,114568
2015-06-19,00:00:00,10886.7,11029,10882.2,10944.3,117368
2015-06-22,00:00:00,11181.5,11393.3,11175,11368.2,108358
2015-06-23,00:00:00,11460.7,11497.1,11384.5,11402.5,80178
2015-06-24,00:00:00,11419.8,11419.8,11222.7,11321.9,109888
2015-06-25,00:00:00,11245.2,11441.3,11214.1,11308.4,122268
2015-06-26,00:00:00,11232.9,11434.6,11201.7,11372.3,102768
2015-06-29,00:00:00,11139.7,11185.1,10820.6,10853.9,164498
2015-06-30,00:00:00,10805.2,10954.2,10723.7,10769.5,190388
2015-07-01,00:00:00,10856.9,11036.8,10784.7,10911.5,134718
2015-07-02,00:00:00,10927.9,10960.1,10835.5,10846.4,84858
2015-07-03,00:00:00,10823.2,10860.4,10730,10779.8,85148
2015-07-06,00:00:00,10557.3,10653.2,10496.7,10540.1,129538
2015-07-07,00:00:00,10555.6,10588.4,10332.6,10346,115638
2015-07-08,00:00:00,10362.2,10478.7,10316.7,10430.3,125078
2015-07-09,00:00:00,10474.1,10761.1,10468.3,10706.4,98068
2015-07-10,00:00:00,10969.9,11069.6,10897.8,11036.1,96538
2015-07-13,00:00:00,11182.8,11253.5,11122.3,11224.2,82298
2015-07-14,00:00:00,11220.3,11258.3,11141,11258.3,63338
2015-07-15,00:00:00,11262.6,11359.1,11234.4,11335.7,55328
2015-07-16,00:00:00,11401.3,11535.8,11401.3,11510.6,64938
2015-07-17,00:00:00,11546.8,11546.8,11472.6,11480.7,74167
2015-07-20,00:00:00,11506.5,11612.4,11499.8,11556.1,80875
2015-07-21,00:00:00,11571.4,11579.6,11432.6,11458.6,80035
2015-07-22,00:00:00,11384.5,11525.4,11366.6,11484.3,84065
2015-07-23,00:00:00,11551.6,11553.4,11429.5,11441.9,92505
2015-07-24,00:00:00,11414.5,11459.7,11302.7,11309.3,94215
2015-07-27,00:00:00,11245.4,11264.2,11136.7,11145.4,134695
2015-07-28,00:00:00,11184.3,11293.1,11168.3,11252.4,97365
2015-07-29,00:00:00,11312.4,11325.3,11186.2,11282.9,103545
2015-07-30,00:00:00,11348,11362.4,11117.6,11168.6,117565
2015-07-31,00:00:00,11200.6,11200.6,11041.3,11180.7,108225
2015-08-03,00:00:00,11178.8,11288.1,11141.8,11265.9,110145
2015-08-04,00:00:00,11236.8,11241.6,11098.6,11150.5,99375
2015-08-05,00:00:00,11197.2,11302.3,11184.7,11279.5,78755
2015-08-06,00:00:00,11259,11327,11240.8,11253.6,91345
2015-08-07,00:00:00,11243.6,11263.7,11177.2,11178.2,93095
2015-08-10,00:00:00,11243.7,11329.9,11129.6,11311.7,91985
2015-08-11,00:00:00,11277.8,11318.4,11137.9,11152.3,109035
2015-08-12,00:00:00,11045.3,11050.9,10840.4,10880.1,144175
2015-08-13,00:00:00,11034.1,11057.1,10938.6,10947.9,107625
2015-08-14,00:00:00,10955,11034.3,10851.6,10879.3,119695
2015-08-17,00:00:00,10980.7,11023.2,10774.6,10900.3,131215
2015-08-18,00:00:00,10879.6,10952.2,10846.7,10897.9,104725
2015-08-19,00:00:00,10841.8,10904.9,10777.2,10782.4,106615
2015-08-20,00:00:00,10748.5,10797,10564.9,10587,120625
2015-08-21,00:00:00,10427.8,10576,10271,10271.7,186225
2015-08-24,00:00:00,9956.4,10077.5,9505.4,9756.6,340385
2015-08-25,00:00:00,9890.5,10166.8,9821,10115.4,232235
2015-08-26,00:00:00,10000.1,10132.7,9878.4,9984.5,225465
2015-08-27,00:00:00,10232.8,10356.7,10176.9,10290.2,153445
2015-08-28,00:00:00,10321.5,10352.9,10237.8,10352.9,143245
2015-08-31,00:00:00,10292.8,10319,10190.7,10259,126265
2015-09-01,00:00:00,10127.3,10148,9921.2,9992.8,166225
2015-09-02,00:00:00,10007.7,10070.1,9859,9938.3,184895
2015-09-03,00:00:00,10028.2,10118.7,9945.9,10042.4,153945
2015-09-04,00:00:00,9945,9949.7,9739,9821.8,173345
2015-09-07,00:00:00,9898.6,9931.4,9796.8,9805.4,88965
2015-09-08,00:00:00,9862.1,9987.7,9857.9,9866.2,108625
2015-09-09,00:00:00,10083.6,10192.8,10031.6,10037.8,109495
2015-09-10,00:00:00,9922.3,9989.7,9841.4,9859,127275
2015-09-11,00:00:00,9876.6,9876.6,9723,9737.9,138378
2015-09-14,00:00:00,9765.6,9836.5,9685.6,9696.4,170253
2015-09-15,00:00:00,9707.6,9834.2,9620.9,9782.5,172893
2015-09-16,00:00:00,9878.8,9982.7,9843.3,9976.8,148283
2015-09-17,00:00:00,10014.6,10141.8,9989.1,10106.6,147183
2015-09-18,00:00:00,10031.6,10050,9802.1,9847.2,236383
2015-09-21,00:00:00,9823.2,9952,9820.4,9856.8,198754
2015-09-22,00:00:00,9855,9855,9528.9,9543.4,256212
2015-09-23,00:00:00,9529.3,9657.6,9465.4,9484.6,219472
2015-09-24,00:00:00,9489.6,9539.8,9231.7,9279.3,272212
2015-09-25,00:00:00,9450,9572,9424,9524,3312
2015-09-28,00:00:00,9454,9596,9356,9404,3156
2015-09-29,00:00:00,9279,9511,9263,9407,4015
2015-09-30,00:00:00,9581,9603,9489,9549,3824
2015-10-01,00:00:00,9667,9715,9541,9560,4164
2015-10-02,00:00:00,9649,9686,9426,9591,4074
2015-10-05,00:00:00,9776,9977,9729,9941,4094
2015-10-06,00:00:00,9984,10135,9907,10114,3907
2015-10-07,00:00:00,10156,10287,10117,10149,4108
2015-10-08,00:00:00,10126,10188,10062,10181,4009
2015-10-09,00:00:00,10271,10351,10223,10308,3962
2015-10-12,00:00:00,10320,10376,10206,10253,3360
2015-10-13,00:00:00,10204,10204,10047,10100,3824
2015-10-14,00:00:00,10047,10126,9989,10051,3734
2015-10-15,00:00:00,10119,10127,10052,10103,3704
2015-10-16,00:00:00,10165,10238,10149,10228,3655
2015-10-19,00:00:00,10207,10307,10162,10207,3475
2015-10-20,00:00:00,10204,10211,10053,10113,3613
2015-10-21,00:00:00,10126,10185,10001,10162,3256
2015-10-22,00:00:00,10119,10400,10107,10368,3798
2015-10-23,00:00:00,10434,10587,10413,10457,4205
2015-10-26,00:00:00,10468,10514,10406,10478,3551
2015-10-27,00:00:00,10447,10448,10298,10334,3538
2015-10-28,00:00:00,10310,10437,10295,10425,3639
2015-10-29,00:00:00,10439,10443,10294,10364,3995
2015-10-30,00:00:00,10366,10400,10256,10320,3718
2015-11-02,00:00:00,10257,10458,10256,10420,3543
2015-11-03,00:00:00,10393,10461,10373,10445,3461
2015-11-04,00:00:00,10530,10629,10449,10454,3900
2015-11-05,00:00:00,10475,10550,10383,10434,3970
2015-11-06,00:00:00,10426,10497,10315,10444,4097
2015-11-09,00:00:00,10464,10474,10318,10318,3638
2015-11-10,00:00:00,10369,10369,10242,10333,3578
2015-11-11,00:00:00,10344,10460,10343,10380,3601
2015-11-12,00:00:00,10343,10365,10107,10138,10055
2015-11-13,00:00:00,10113,10198,10012,10103,19522
2015-11-16,00:00:00,10017,10198,10000,10198,21918
2015-11-17,00:00:00,10208,10379,10196,10351,15751
2015-11-18,00:00:00,10271,10306,10221,10259,17961
2015-11-19,00:00:00,10339,10406,10319,10352,15036
2015-11-20,00:00:00,10380,10386,10242,10274,15693
2015-11-23,00:00:00,10245,10306,10202,10252,14014
2015-11-24,00:00:00,10204,10235,10040,10231,18163
2015-11-25,00:00:00,10188,10247,10075,10216,14944
2015-11-26,00:00:00,10199,10353,10170,10324,10824
2015-11-27,00:00:00,10275,10390,10259,10294,14351
2015-11-30,00:00:00,10283,10431,10271,10402,12445
2015-12-01,00:00:00,10422,10469,10338,10368,16559
2015-12-02,00:00:00,10422,10444,10306,10307,17120
2015-12-03,00:00:00,10346,10481,9956,9960,30493
2015-12-04,00:00:00,10022,10171,9923,10160,25467
2015-12-07,00:00:00,10138,10156,10009,10035,19612
2015-12-08,00:00:00,10009,10021,9784,9813,21686
2015-12-09,00:00:00,9859,9929,9707,9723,27859
2015-12-10,00:00:00,9753,9870,9712,9784,22488
2015-12-11,00:00:00,9755,9788,9575,9585,28451
2015-12-14,00:00:00,9650,9729,9404,9471,29419
2015-12-15,00:00:00,9488,9741,9483,9725,21252
2015-12-16,00:00:00,9740,9813,9626,9751,23292
2015-12-17,00:00:00,9895,10002,9846,9907,20211
2015-12-18,00:00:00,9756,9875,9643,9682,26928
2015-12-21,00:00:00,9682,9682,9350,9429,19913
2015-12-22,00:00:00,9437,9455,9346,9450,20735
2015-12-23,00:00:00,9506,9661,9499,9650,17753
2015-12-24,00:00:00,9698,9711,9635,9685,1957
2015-12-28,00:00:00,9683,9721,9525,9569,9557
2015-12-29,00:00:00,9607,9678,9601,9661,10611
2015-12-30,00:00:00,9650,9694,9593,9608,12273
2015-12-31,00:00:00,9583,9595,9537,9542,1394
2016-01-04,00:00:00,9422,9424,9256,9355,25219
2016-01-05,00:00:00,9424,9441,9253,9356,21803
2016-01-06,00:00:00,9300,9309,9114,9149,22489
2016-01-07,00:00:00,8938,9101,8883,8972,30181
2016-01-08,00:00:00,9067,9138,8894,8918,32513
2016-01-11,00:00:00,8849,9022,8831,8843,29418
2016-01-12,00:00:00,8843,9039,8814,8897,28319
2016-01-13,00:00:00,8979,9068,8798,8799,25481
2016-01-14,00:00:00,8834,8878,8656,8875,34951
2016-01-15,00:00:00,8753,8794,8409,8463,38354
2016-01-18,00:00:00,8529,8626,8422,8452,24382
2016-01-19,00:00:00,8609,8655,8495,8503,29758
2016-01-20,00:00:00,8361,8397,8166,8269,37113
2016-01-21,00:00:00,8311,8505,8271,8429,40115
2016-01-22,00:00:00,8596,8794,8560,8763,25956
2016-01-25,00:00:00,8728,8736,8520,8566,23854
2016-01-26,00:00:00,8414,8718,8406,8717,25459
2016-01-27,00:00:00,8655,8784,8602,8751,25058
2016-01-28,00:00:00,8683,8811,8509,8596,34786
2016-01-29,00:00:00,8718,8838,8664,8831,26285
2016-02-01,00:00:00,8829,8894,8711,8788,24983
2016-02-02,00:00:00,8763,8774,8452,8454,23108
2016-02-03,00:00:00,8508,8519,8171,8278,29077
2016-02-04,00:00:00,8439,8522,8282,8453,32518
2016-02-05,00:00:00,8454,8613,8405,8490,34325
2016-02-08,00:00:00,8517,8536,8079,8089,33750
2016-02-09,00:00:00,8130,8213,7858,7903,39904
2016-02-10,00:00:00,8010,8248,7918,8127,36480
2016-02-11,00:00:00,8012,8012,7737,7748,40970
2016-02-12,00:00:00,7850,7923,7765,7893,26368
2016-02-15,00:00:00,8112,8218,8071,8170,20902
2016-02-16,00:00:00,8243,8244,8088,8172,27407
2016-02-17,00:00:00,8160,8368,8131,8356,19595
2016-02-18,00:00:00,8401,8476,8251,8262,20743
2016-02-19,00:00:00,8289,8335,8100,8189,23906
2016-02-22,00:00:00,8293,8399,8277,8384,16890
2016-02-23,00:00:00,8315,8445,8254,8264,19595
2016-02-24,00:00:00,8241,8263,7959,8063,24548
2016-02-25,00:00:00,8134,8258,8099,8233,22166
2016-02-26,00:00:00,8307,8395,8259,8327,19679
2016-02-29,00:00:00,8262,8469,8216,8432,22313
2016-03-01,00:00:00,8438,8648,8419,8638,18378
2016-03-02,00:00:00,8657,8774,8634,8746,18080
2016-03-03,00:00:00,8766,8810,8685,8784,18236
2016-03-04,00:00:00,8806,8869,8730,8826,20860
2016-03-07,00:00:00,8759,8830,8666,8789,16995
2016-03-08,00:00:00,8707,8847,8657,8773,21458
2016-03-09,00:00:00,8756,8885,8727,8746,19067
2016-03-10,00:00:00,8778,9099,8675,8710,34187
2016-03-11,00:00:00,8915,9097,8898,9093,22847
2016-03-14,00:00:00,9151,9213,9114,9164,17615
2016-03-15,00:00:00,9091,9117,8956,8981,16096
2016-03-16,00:00:00,9018,9061,8894,8953,18475
2016-03-17,00:00:00,9057,9065,8781,8965,22513
2016-03-18,00:00:00,8980,9069,8903,9031,17215
2016-03-21,00:00:00,8986,9138,8958,9028,18116
2016-03-22,00:00:00,8933,9005,8832,8994,20007
2016-03-23,00:00:00,9017,9043,8872,8875,16752
2016-03-24,00:00:00,8861,8889,8775,8810,16290
2016-03-29,00:00:00,8839,8904,8744,8812,20163
2016-03-30,00:00:00,8873,8958,8847,8869,14865
2016-03-31,00:00:00,8806,8820,8696,8714,13927
2016-04-01,00:00:00,8577,8672,8525,8608,21201
2016-04-04,00:00:00,8585,8712,8542,8577,17884
2016-04-05,00:00:00,8467,8485,8346,8366,17964
2016-04-06,00:00:00,8379,8468,8336,8379,16194
2016-04-07,00:00:00,8406,8429,8243,8246,19172
2016-04-08,00:00:00,8310,8460,8310,8406,15558
2016-04-11,00:00:00,8392,8563,8337,8498,18223
2016-04-12,00:00:00,8499,8586,8419,8554,18226
2016-04-13,00:00:00,8657,8821,8589,8820,15438
2016-04-14,00:00:00,8860,8873,8742,8842,17231
2016-04-15,00:00:00,8841,8885,8806,8834,13045
2016-04-18,00:00:00,8692,8896,8670,8889,15775
2016-04-19,00:00:00,8910,8998,8882,8960,15302
2016-04-20,00:00:00,8944,9162,8938,9157,14190
2016-04-21,00:00:00,9178,9219,9119,9163,20246
2016-04-22,00:00:00,9175,9248,9158,9240,16620
2016-04-25,00:00:00,9232,9253,9119,9144,15186
2016-04-26,00:00:00,9178,9300,9159,9288,14069
2016-04-27,00:00:00,9286,9361,9280,9294,14901
2016-04-28,00:00:00,9155,9273,9077,9239,14831
2016-04-29,00:00:00,9140,9190,9015,9031,16063
2016-05-02,00:00:00,9069,9093,8975,9018,12796
2016-05-03,00:00:00,8995,9001,8745,8785,19656
2016-05-04,00:00:00,8773,8798,8637,8641,18607
2016-05-05,00:00:00,8713,8788,8653,8665,15008
2016-05-06,00:00:00,8636,8766,8559,8728,19156
2016-05-09,00:00:00,8756,8834,8637,8665,14355
2016-05-10,00:00:00,8738,8829,8705,8776,15007
2016-05-11,00:00:00,8777,8790,8606,8650,17298
2016-05-12,00:00:00,8616,8785,8577,8688,18248
2016-05-13,00:00:00,8603,8752,8590,8639,21406
2016-05-16,00:00:00,8619,8699,8570,8682,8243
2016-05-17,00:00:00,8724,8823,8639,8665,19402
2016-05-18,00:00:00,8638,8794,8624,8766,16610
2016-05-19,00:00:00,8737,8781,8652,8674,20530
2016-05-20,00:00:00,8743,8791,8710,8743,15601
2016-05-23,00:00:00,8746,8810,8670,8710,14775
2016-05-24,00:00:00,8673,8937,8665,8912,12211
2016-05-25,00:00:00,8983,9149,8977,9117,11690
2016-05-26,00:00:00,9030,9079,9001,9045,3801
2016-05-27,00:00:00,9044.7,9125,9022.7,9092,10947
2016-05-30,00:00:00,9112,9135,9064,9104,5749
2016-05-31,00:00:00,9132,9153,9013,9028,13276
2016-06-01,00:00:00,9031,9040,8880,8918,14537
2016-06-02,00:00:00,8917.9,9057.9,8902.9,8986,17489
2016-06-03,00:00:00,9006,9039,8754,8791,19154
2016-06-06,00:00:00,8801,8869,8783,8815,13700
2016-06-07,00:00:00,8868,8947,8856,8881,11161
2016-06-08,00:00:00,8850,8865,8793,8827,11398
2016-06-09,00:00:00,8802,8831,8747,8762,14243
2016-06-10,00:00:00,8732,8734,8443,8444,17463
2016-06-13,00:00:00,8378,8425,8259,8261,24042
2016-06-14,00:00:00,8240,8270,8117,8126,24377
2016-06-15,00:00:00,8210,8314,8191,8249,20198
2016-06-16,00:00:00,8112.7,8301,8104,8261,22992
2016-06-17,00:00:00,8271,8428,8268,8416,24600
2016-06-20,00:00:00,8582,8669,8569,8657,18804
2016-06-21,00:00:00,8641.5,8699.5,8604.5,8695.5,19291
2016-06-22,00:00:00,8713.7,8772.9,8603.7,8710.9,20323
2016-06-23,00:00:00,8753.9,8911,8684.9,8894,38103
2016-06-24,00:00:00,7415,8061,7361,7699,48018
2016-06-27,00:00:00,8105,8106,7581,7679,41197
2016-06-28,00:00:00,7815.3,7917.3,7791.3,7837.3,27442
2016-06-29,00:00:00,7946.4,8115.4,7923.4,8073.4,23229
2016-06-30,00:00:00,8088.4,8298,8001.4,8268,30016
2016-07-01,00:00:00,8252,8305,8131,8260,26709
2016-07-04,00:00:00,8309,8327,8226,8252,14067
2016-07-05,00:00:00,8167.6,8198.6,8019,8028,22304
2016-07-06,00:00:00,8017.7,8039.7,7854.7,7974.7,31521
2016-07-07,00:00:00,7990.7,8064.7,7955.7,7961.7,20321
2016-07-08,00:00:00,7984.7,8244.7,7954.7,8173.7,23808
2016-07-11,00:00:00,8267.3,8321.3,8166.3,8297.3,19837
2016-07-12,00:00:00,8304.3,8530,8296.3,8502,18528
2016-07-13,00:00:00,8465,8579,8424,8457,21410
2016-07-14,00:00:00,8562,8594,8448,8516,23183
2016-07-15,00:00:00,8510,8580,8441,8503,18274
2016-07-18,00:00:00,8554,8609,8443,8513,17391
2016-07-19,00:00:00,8500,8556,8434,8451,18030
2016-07-20,00:00:00,8551,8576,8466,8561,13262
2016-07-21,00:00:00,8595,8619,8497,8549,19458
2016-07-22,00:00:00,8568,8617,8510,8597,15114
2016-07-25,00:00:00,8607.2,8648.2,8532.2,8554.2,14789
2016-07-26,00:00:00,8570.2,8585.2,8482.2,8544.2,14597
2016-07-27,00:00:00,8571.5,8718.5,8571.5,8635.5,13027
2016-07-28,00:00:00,8622.5,8657.5,8469.5,8519.5,15418
2016-07-29,00:00:00,8507.5,8618.5,8498.5,8596.5,14269
2016-08-01,00:00:00,8668.5,8678.5,8460.5,8462.5,11672
2016-08-02,00:00:00,8495.5,8499.5,8254.5,8273.5,15247
2016-08-03,00:00:00,8312.5,8331.5,8227.5,8271,17834
2016-08-04,00:00:00,8320,8426,8313,8395,15989
2016-08-05,00:00:00,8427,8554,8417,8533,11929
2016-08-08,00:00:00,8577,8634,8545.5,8547.5,8261
2016-08-09,00:00:00,8539.5,8676.5,8528.5,8629.5,8576
2016-08-10,00:00:00,8617.5,8689.5,8596.5,8652.5,8699
2016-08-11,00:00:00,8700.5,8724.5,8623.5,8701.5,9869
2016-08-12,00:00:00,8705.5,8748.5,8687.5,8687.5,9221
2016-08-15,00:00:00,8720.5,8755.5,8692.5,8707,5736
2016-08-16,00:00:00,8671,8715,8606,8607,12388
2016-08-17,00:00:00,8635,8652,8481,8519,11910
2016-08-18,00:00:00,8549,8553,8477,8524,9947
2016-08-19,00:00:00,8553,8557,8390,8451,10674
2016-08-22,00:00:00,8432,8524,8406,8487,14099
2016-08-23,00:00:00,8506,8602,8499,8572,9653
2016-08-24,00:00:00,8525,8667,8504,8655,10365
2016-08-25,00:00:00,8617,8629,8553,8582,12422
2016-08-26,00:00:00,8586,8676,8544,8565,13454
2016-08-29,00:00:00,8610,8662,8570,8621,7889
2016-08-30,00:00:00,8630,8732,8626,8689,8774
2016-08-31,00:00:00,8673,8780,8662,8704,10088
2016-09-01,00:00:00,8742,8885,8727,8770,13395
2016-09-02,00:00:00,8788,8915,8739,8896,17470
2016-09-05,00:00:00,8923,8979,8912,8973,10207
2016-09-06,00:00:00,8993,8997,8887,8916,10138
2016-09-07,00:00:00,8930,9023,8907,9002,10599
2016-09-08,00:00:00,9033,9115.5,8970.5,9075.5,19188
2016-09-09,00:00:00,9067.5,9135.5,8979.5,8985.5,13828
2016-09-12,00:00:00,8874.5,8915.5,8791.5,8913.5,20224
2016-09-13,00:00:00,8906.5,8924.5,8703.5,8729.5,21986
2016-09-14,00:00:00,8779.5,8782.5,8683.5,8711.5,23150
2016-09-15,00:00:00,8711.5,8744.5,8662.5,8723.5,21175
2016-09-16,00:00:00,8697.5,8726.5,8602,8643,18304
2016-09-19,00:00:00,8724,8734,8666,8674,5818
2016-09-20,00:00:00,8686,8737,8648,8690,6981
2016-09-21,00:00:00,8812,8836,8740,8762,7149
2016-09-22,00:00:00,8821.2,8965.5,8812.2,8928.5,6105
2016-09-23,00:00:00,8895.6,8899.6,8783.6,8810.6,5472
2016-09-26,00:00:00,8774.6,8774.6,8628.6,8700.5,6419
2016-09-27,00:00:00,8776,8781,8631,8719,7660
2016-09-28,00:00:00,8744,8805,8712,8751,7711
2016-09-29,00:00:00,8834,8864,8629.5,8632.5,7313
2016-09-30,00:00:00,8645.5,8805.5,8539.5,8783.5,9481
2016-10-03,00:00:00,8773.5,8797.5,8714.5,8742.5,4482
2016-10-04,00:00:00,8774.5,8818.5,8676,8696,8274
2016-10-05,00:00:00,8690,8791,8665,8790,14573
2016-10-06,00:00:00,8820,8846,8738,8793,15381
2016-10-07,00:00:00,8769,8777,8595.5,8631.5,24424
2016-10-10,00:00:00,8632.5,8717.5,8563.5,8694.5,12610
2016-10-11,00:00:00,8693.5,8751,8653.5,8665,13945
2016-10-12,00:00:00,8708,8759,8671,8698,12960
2016-10-13,00:00:00,8624,8643,8547,8640,16227
2016-10-14,00:00:00,8633,8802,8630,8768,12703
2016-10-17,00:00:00,8725,8787,8708,8732,15140
2016-10-18,00:00:00,8782.8,8889.5,8770.8,8888.5,12573
2016-10-19,00:00:00,8887.5,8963.5,8838.5,8960.5,10488
2016-10-20,00:00:00,8966.5,9077,8955.5,9056,16366
2016-10-21,00:00:00,9048,9110,9032,9108,11771
2016-10-24,00:00:00,9155,9253,9140,9203,10302
2016-10-25,00:00:00,9200,9233,9111,9146,10467
2016-10-26,00:00:00,9149,9181,9110,9122.5,13266
2016-10-27,00:00:00,9150.5,9221.5,9099.5,9200.5,15904
2016-10-28,00:00:00,9144.5,9205.5,9084.5,9125.5,16872
2016-10-31,00:00:00,9138.8,9170.5,9098.8,9138.5,9572
2016-11-01,00:00:00,9212.5,9214.5,8981.5,9008.5,13965
2016-11-02,00:00:00,8973.5,8978.5,8849.5,8888.5,17031
2016-11-03,00:00:00,8862.5,8929.5,8834.5,8882,16615
2016-11-04,00:00:00,8857,8863,8753,8763,14809
2016-11-07,00:00:00,8930,8957,8888,8925,9359
2016-11-08,00:00:00,8925,8976.5,8856,8958.5,11786
2016-11-09,00:00:00,8630.5,8936.5,8578.5,8928.5,47378
2016-11-10,00:00:00,8994.5,9051.5,8705.5,8807.5,30598
2016-11-11,00:00:00,8827.5,8840.5,8611.5,8645.5,23723
2016-11-14,00:00:00,8733.5,8761.5,8597.5,8655.5,22074
2016-11-15,00:00:00,8653.2,8707,8616.7,8684,17294
2016-11-16,00:00:00,8694,8751,8561,8624,17864
2016-11-17,00:00:00,8600,8724,8600,8715,15533
2016-11-18,00:00:00,8749,8758,8582,8620,15498
2016-11-21,00:00:00,8664,8665,8553,8637,13597
2016-11-22,00:00:00,8673.4,8682.4,8635.4,8656,10735
2016-11-23,00:00:00,8662,8670.2,8604.2,8635.2,13845
2016-11-24,00:00:00,8658.2,8669.2,8610.2,8659.2,7894
2016-11-25,00:00:00,8664.2,8677.2,8624.2,8674.2,6672
2016-11-28,00:00:00,8649.2,8699.2,8585.2,8623.2,11398
2016-11-29,00:00:00,8601.2,8696.2,8589.2,8660.1,10916
2016-11-30,00:00:00,8658.1,8711.1,8637.1,8681.1,12257
2016-12-01,00:00:00,8672.8,8708.8,8629.7,8640.7,12101
2016-12-02,00:00:00,8611.7,8635,8559,8561,11114
2016-12-05,00:00:00,8526.5,8750.6,8511.5,8659.6,17245
2016-12-06,00:00:00,8686.6,8928,8663.6,8928,13508
2016-12-07,00:00:00,8951,9025.5,8909,9024.5,12013
2016-12-08,00:00:00,9002.5,9179.5,8991.5,9158.5,20542
2016-12-09,00:00:00,9118.5,9193,9094.5,9181,12353
2016-12-12,00:00:00,9169,9206,9139.5,9146.5,12508
2016-12-13,00:00:00,9167.5,9347,9137.5,9336,13467
2016-12-14,00:00:00,9313.9,9319.9,9203,9240,12204
2016-12-15,00:00:00,9245,9354.5,9219,9295.5,17690
2016-12-16,00:00:00,9312.5,9443,9295.5,9377,12398
2016-12-19,00:00:00,9371.6,9383.6,9328.5,9338.5,7617
2016-12-20,00:00:00,9325.4,9419.5,9318.4,9398.5,8171
2016-12-21,00:00:00,9373.4,9418.4,9298.4,9367.5,7977
2016-12-22,00:00:00,9343.5,9372.5,9295.5,9326.5,5509
2016-12-23,00:00:00,9335.5,9376.5,9333.5,9354.5,4507
2016-12-27,00:00:00,9360.5,9388.5,9348.5,9365.5,3090
2016-12-28,00:00:00,9344.3,9364.3,9292,9294,4198
2016-12-29,00:00:00,9277.6,9331,9254.6,9305,4743
2016-12-30,00:00:00,9296,9353,9289,9330,6479
2017-01-02,00:00:00,9320,9432,9311,9391,3503
2017-01-03,00:00:00,9448,9549,9436,9492,9695
2017-01-04,00:00:00,9525,9537,9420,9463,7385
2017-01-05,00:00:00,9418.6,9507.6,9412.6,9486.6,8180
2017-01-06,00:00:00,9491.6,9529.6,9449.6,9522.6,9265
2017-01-09,00:00:00,9537.6,9537.6,9443.5,9489,7898
2017-01-10,00:00:00,9501.5,9501.5,9420.2,9444.2,7514
2017-01-11,00:00:00,9441.2,9464.2,9356.2,9386.2,10493
2017-01-12,00:00:00,9381.2,9450.2,9338.2,9430.2,10962
2017-01-13,00:00:00,9447.2,9520.2,9410.2,9475.2,8117
2017-01-16,00:00:00,9433.2,9458.2,9398,9405,6847
2017-01-17,00:00:00,9383.3,9427.3,9358.3,9414.3,13032
2017-01-18,00:00:00,9427.3,9433.3,9360.3,9370,12558
2017-01-19,00:00:00,9398,9430,9324,9364.5,13183
2017-01-20,00:00:00,9372.8,9435.2,9340.2,9348.2,19579
2017-01-23,00:00:00,9319.2,9362,9276.2,9318,11645
2017-01-24,00:00:00,9309,9415,9294,9409,9552
2017-01-25,00:00:00,9458,9587.5,9458,9558.5,12716
2017-01-26,00:00:00,9597.5,9620.5,9494.5,9502.5,11179
2017-01-27,00:00:00,9535.5,9535.5,9418.5,9514,11405
2017-01-30,00:00:00,9461.2,9471.2,9349,9365,14572
2017-01-31,00:00:00,9350,9428,9310.2,9339.2,12984
2017-02-01,00:00:00,9399.2,9422.2,9303.2,9341.2,11815
2017-02-02,00:00:00,9306.2,9428.2,9294.2,9418.2,11555
2017-02-03,00:00:00,9407.2,9483.2,9395.2,9469.2,9040
2017-02-06,00:00:00,9461.2,9482.2,9323,9336,12066
2017-02-07,00:00:00,9328,9388,9297,9338,9580
2017-02-08,00:00:00,9358,9378,9232,9325,11401
2017-02-09,00:00:00,9332,9449,9316,9445,11906
2017-02-10,00:00:00,9475,9504,9352,9403,10610
2017-02-13,00:00:00,9402,9500,9387,9500,8607
2017-02-14,00:00:00,9475,9529,9458,9525,8795
2017-02-15,00:00:00,9531,9613,9526,9577,10761
2017-02-16,00:00:00,9582,9614,9525,9560.4,10625
2017-02-17,00:00:00,9544.4,9574.4,9434.4,9518.4,13658
2017-02-20,00:00:00,9571.4,9633.4,9508.5,9542.5,7153
2017-02-21,00:00:00,9548.5,9590.5,9467.5,9561.5,10003
2017-02-22,00:00:00,9571.5,9602.5,9437,9493,11670
2017-02-23,00:00:00,9485,9542,9474.5,9503.5,9702
2017-02-24,00:00:00,9470.5,9532.5,9383,9461,12610
2017-02-27,00:00:00,9481.5,9498.5,9425.5,9486.5,9058
2017-02-28,00:00:00,9486.5,9567.5,9479.5,9539.5,9125
2017-03-01,00:00:00,9562.5,9772.3,9562.5,9770.3,12183
2017-03-02,00:00:00,9766.3,9779.3,9703,9708,9086
2017-03-03,00:00:00,9676,9822,9663,9805,11290
2017-03-06,00:00:00,9758,9827,9754,9816,9750
2017-03-07,00:00:00,9826,9827,9769.5,9816.5,8309
2017-03-08,00:00:00,9793.5,9882,9781.5,9848,10892
2017-03-09,00:00:00,9832,10017,9826,9986,15538
2017-03-10,00:00:00,10033,10089,9979,9988,14343
2017-03-13,00:00:00,10007,10024,9954,9987,8900
2017-03-14,00:00:00,10004,10018,9881,9919,11302
2017-03-15,00:00:00,9921,10000,9914,9975,11173
2017-03-16,00:00:00,10042,10180.5,10022,10166.5,14665
2017-03-17,00:00:00,10165.5,10271.5,10142.5,10265.5,13504
2017-03-20,00:00:00,10231.5,10244.5,10190.5,10217.5,9114
2017-03-21,00:00:00,10239.5,10337.5,10167,10185,14918
2017-03-22,00:00:00,10155,10268,10090,10237,15387
2017-03-23,00:00:00,10244,10324,10199,10306,13989
2017-03-24,00:00:00,10316,10332,10276,10288,10186
2017-03-27,00:00:00,10235,10318,10189,10306,12537
2017-03-28,00:00:00,10337.8,10406,10312,10402,8152
2017-03-29,00:00:00,10408.4,10424.4,10301,10372,10121
2017-03-30,00:00:00,10363,10410,10347,10388,8612
2017-03-31,00:00:00,10362,10468,10348,10453,8596
2017-04-03,00:00:00,10454.5,10466.5,10268,10305,9625
2017-04-04,00:00:00,10315,10367,10272,10359,10427
2017-04-05,00:00:00,10370.8,10463.5,10357.8,10414.5,9963
2017-04-06,00:00:00,10347.4,10535.4,10311.4,10512.4,10970
2017-04-07,00:00:00,10482.7,10523.7,10424.7,10514.7,10391
2017-04-10,00:00:00,10503.7,10518.7,10395.7,10409.7,7483
2017-04-11,00:00:00,10383.8,10446.8,10330.8,10408.8,10336
2017-04-12,00:00:00,10398.8,10478,10340,10362,10296
2017-04-13,00:00:00,10350,10358,10263,10303,9151
2017-04-18,00:00:00,10385,10397,10215,10235,13104
2017-04-19,00:00:00,10257,10379,10244,10354,9384
2017-04-20,00:00:00,10345,10475,10328,10404,12663
2017-04-21,00:00:00,10389,10434,10305,10388,12886
2017-04-24,00:00:00,10587,10771,10587,10765,14585
2017-04-25,00:00:00,10765.5,10830.5,10721.5,10798.5,9254
2017-04-26,00:00:00,10802.5,10834.5,10708.5,10753.5,8316
2017-04-27,00:00:00,10709,10727,10666,10693,7933
2017-04-28,00:00:00,10685,10749,10627,10719,7935
2017-05-02,00:00:00,10709.4,10823,10706.4,10807,7206
2017-05-03,00:00:00,10807,10848,10765,10826,6591
2017-05-04,00:00:00,10847,11031,10847,11023,8574
2017-05-05,00:00:00,11007.3,11196.3,10959.3,11180.3,9841
2017-05-08,00:00:00,11234.3,11234.3,11028.3,11092.3,11303
2017-05-09,00:00:00,11090.6,11128.6,11018,11023,8048
2017-05-10,00:00:00,11028,11051,10954,11029,7755
2017-05-11,00:00:00,11026,11057,10820,10889,10966
2017-05-12,00:00:00,10877,10913,10834,10905,8239
2017-05-15,00:00:00,10926,10968,10888,10963,7728
2017-05-16,00:00:00,10948,10989,10926,10966,7675
2017-05-17,00:00:00,10933,10965,10750,10754,12629
2017-05-18,00:00:00,10737,10777,10565,10677,21998
2017-05-19,00:00:00,10708,10853,10688,10850,10476
2017-05-22,00:00:00,10870,10876,10762,10784,8782
2017-05-23,00:00:00,10777,10927,10754,10910,10355
2017-05-24,00:00:00,10916,10940,10879,10902,6737
2017-05-25,00:00:00,10963,10982,10906,10926,8839
2017-05-26,00:00:00,10907,10921,10797,10885,9094
2017-05-29,00:00:00,10908,10915,10840,10871,4820
2017-05-30,00:00:00,10843,10919,10785,10860,10199
2017-05-31,00:00:00,10857,10957,10847,10884,11359
2017-06-01,00:00:00,10896,10922,10833,10917,10315
2017-06-02,00:00:00,10960,11009,10877,10913,10254
2017-06-05,00:00:00,10896,10916,10841,10887,6501
2017-06-06,00:00:00,10834,10905,10815,10826,10333
2017-06-07,00:00:00,10851,10921.5,10752.5,10839.5,11915
2017-06-08,00:00:00,10858,10990.5,10826.5,10988.5,11175
2017-06-09,00:00:00,10985,11052,10885.5,10937.5,12279
2017-06-12,00:00:00,10925,10937.5,10802.5,10807.5,12641
2017-06-13,00:00:00,10835,10934,10833.5,10897,7329
2017-06-14,00:00:00,10877,10932.5,10743,10771.5,8697
2017-06-15,00:00:00,10765,10774,10592.5,10670,13887
2017-06-16,00:00:00,10732.5,10783,10702,10754,11323
2017-06-19,00:00:00,10801,10879.5,10800.5,10857,7732
2017-06-20,00:00:00,10893,10907.5,10716.5,10742,8725
2017-06-21,00:00:00,10733,10758.5,10611,10702.5,11089
2017-06-22,00:00:00,10705,10729,10638,10683.5,8849
2017-06-23,00:00:00,10680.5,10710,10591,10620,9255
2017-06-26,00:00:00,10631,10755,10631,10687,8726
2017-06-27,00:00:00,10685.5,10724.5,10594,10605.5,11972
2017-06-28,00:00:00,10588.5,10714.5,10522,10712,14488
2017-06-29,00:00:00,10701.5,10771,10469.5,10487,16416
2017-06-30,00:00:00,10503.5,10580.5,10420,10483.5,14263
2017-07-03,00:00:00,10491,10612.5,10477,10575.5,8862
2017-07-04,00:00:00,10575,10608.5,10521,10555.5,6674
2017-07-05,00:00:00,10525,10587.5,10504,10541.5,11244
2017-07-06,00:00:00,10534.5,10548,10398.5,10514,13503
2017-07-07,00:00:00,10480,10521,10431.5,10519.5,9882
2017-07-10,00:00:00,10530,10545.5,10447.5,10519.5,7410
2017-07-11,00:00:00,10539.5,10542,10435.5,10470.5,8149
2017-07-12,00:00:00,10479.5,10580,10459.5,10577.5,8509
2017-07-13,00:00:00,10576.5,10682.5,10565.5,10679.5,8590
2017-07-14,00:00:00,10674.5,10701,10616,10668,7805
2017-07-17,00:00:00,10680,10691.5,10601,10634,8385
2017-07-18,00:00:00,10620,10683,10506,10531,11734
2017-07-19,00:00:00,10541,10598.5,10459,10598.5,10636
2017-07-20,00:00:00,10608.5,10624.5,10531.5,10560.5,14359
2017-07-21,00:00:00,10551.5,10561,10376,10417.5,13530
2017-07-24,00:00:00,10421,10476,10360,10463,10684
2017-07-25,00:00:00,10471.5,10619,10443.5,10518,10208
2017-07-26,00:00:00,10516.5,10578.5,10501.5,10556.5,8717
2017-07-27,00:00:00,10568,10636,10532,10549,10145
2017-07-28,00:00:00,10545,10579.5,10490.5,10529,11491
2017-07-31,00:00:00,10498.5,10592,10470,10496.5,4041
2017-08-01,00:00:00,10500.5,10618.5,10500.5,10572,4406
2017-08-02,00:00:00,10576.5,10604.5,10482,10501,4323
2017-08-03,00:00:00,10511,10550,10410.5,10541,4634
2017-08-04,00:00:00,10536,10695.5,10513,10686,4202
2017-08-07,00:00:00,10685,10693.5,10640.5,10679.5,3281
2017-08-08,00:00:00,10673.5,10758.5,10656.5,10709.5,3656
2017-08-09,00:00:00,10681.5,10704.5,10520.5,10601.5,5400
2017-08-10,00:00:00,10596.5,10598,10405.5,10408,5730
2017-08-11,00:00:00,10384.5,10396,10250,10264,6564
2017-08-14,00:00:00,10311.5,10491,10311.5,10477.5,4559
2017-08-15,00:00:00,10498.5,10508.5,10434.5,10479,4686
2017-08-16,00:00:00,10481,10573,10481,10542.5,4740
2017-08-17,00:00:00,10509.5,10534,10383.5,10393,6214
2017-08-18,00:00:00,10363,10406.5,10284.5,10378,5966
2017-08-21,00:00:00,10398.5,10418.5,10322.5,10347,5321
2017-08-22,00:00:00,10389.5,10439,10356,10419.5,4400
2017-08-23,00:00:00,10422.5,10444,10307.5,10335,4907
2017-08-24,00:00:00,10336.5,10422,10330,10370.5,4430
2017-08-25,00:00:00,10383.5,10417.5,10332,10357,4745
2017-08-28,00:00:00,10330.5,10358.5,10268.5,10281.5,3500
2017-08-29,00:00:00,10208.5,10244,10130.5,10219,6168
2017-08-30,00:00:00,10263.5,10285,10212.5,10278.5,4020
2017-08-31,00:00:00,10291,10352,10270.5,10315.5,4131
2017-09-01,00:00:00,10308,10362.5,10308,10347.5,4405
2017-09-04,00:00:00,10288.5,10288.5,10226.5,10247,3234
2017-09-05,00:00:00,10229.5,10284.5,10101.5,10132.5,4834
2017-09-06,00:00:00,10114.5,10176.5,10095.5,10173,5422
2017-09-07,00:00:00,10163,10188,10106.5,10138,5786
2017-09-08,00:00:00,10120.5,10161,10083,10108.5,4879
2017-09-11,00:00:00,10166,10354.5,10163,10346,3885
2017-09-12,00:00:00,10348,10370,10317,10329.5,3547
2017-09-13,00:00:00,10322.5,10392,10306,10362.5,3411
2017-09-14,00:00:00,10363,10365.5,10282,10341,3273
2017-09-15,00:00:00,10343,10365,10285.5,10312.5,3979
2017-09-18,00:00:00,10364,10412.5,10327,10336,2980
2017-09-19,00:00:00,10339,10397,10295,10360,2989
2017-09-20,00:00:00,10359.5,10369.5,10242,10291,3379
2017-09-21,00:00:00,10348,10357.5,10263,10299.5,3497
2017-09-22,00:00:00,10278,10319,10258.5,10318.5,3090
2017-09-25,00:00:00,10286,10297,10179.5,10209,3502
2017-09-26,00:00:00,10199,10223,10165,10184,3367
2017-09-27,00:00:00,10208,10399,10199,10376.5,3871
2017-09-28,00:00:00,10389.5,10402,10301.5,10342,3396
2017-09-29,00:00:00,10333,10378,10272,10363,3841
2017-10-02,00:00:00,10291,10320.5,10148.5,10272.5,4387
2017-10-03,00:00:00,10292.5,10315,10147,10243,3060
2017-10-04,00:00:00,10276,10276,9935,9949,5000
2017-10-05,00:00:00,9965,10260,9867.5,10196,5261
2017-10-06,00:00:00,10176,10213.5,10116,10154,4442
2017-10-09,00:00:00,10177.5,10309,10168.5,10211,3402
2017-10-10,00:00:00,10200,10363.5,10098.5,10335,5043
2017-10-11,00:00:00,10296,10324.5,10243,10288.5,4229
2017-10-12,00:00:00,10283,10301.5,10240,10291.5,3153
2017-10-13,00:00:00,10296,10304,10225.5,10274,3203
2017-10-16,00:00:00,10269.5,10301.5,10148.5,10174.5,3235
2017-10-17,00:00:00,10182,10298,10129.5,10234.5,3752
2017-10-18,00:00:00,10223,10281.5,10161.5,10270,3617
2017-10-19,00:00:00,10246.5,10275.5,10165.5,10175.5,4403
2017-10-20,00:00:00,10203.5,10245.5,10173.5,10221.5,3488
2017-10-23,00:00:00,10229.5,10230.5,10134.5,10139,3124
2017-10-24,00:00:00,10135.5,10232.5,10114,10195.5,3376
2017-10-25,00:00:00,10186,10272,10122.5,10153,4101
2017-10-26,00:00:00,10162,10423,10119,10358,5510
2017-10-27,00:00:00,10347,10381.5,10132,10200.5,5084
2017-10-30,00:00:00,10235.5,10473.5,10235.5,10456,4423
2017-10-31,00:00:00,10435,10565.5,10430,10534,3723
2017-11-01,00:00:00,10565.5,10611,10482,10536,8021
2017-11-02,00:00:00,10509,10534,10397,10461.5,8894
2017-11-03,00:00:00,10464,10495,10287.5,10353.5,9641
2017-11-06,00:00:00,10346,10359,10258,10318,6998
2017-11-07,00:00:00,10347,10387.5,10200.5,10209,8470
2017-11-08,00:00:00,10201,10246.5,10149,10245.5,8903
2017-11-09,00:00:00,10225.5,10243,10065,10106,12723
2017-11-10,00:00:00,10139.5,10159.5,10076.5,10096,9641
2017-11-13,00:00:00,10089,10128.5,9979,10057,10675
2017-11-14,00:00:00,10047,10101.5,9960.5,9973.5,9777
2017-11-15,00:00:00,9974,10037.5,9872,10005,13516
2017-11-16,00:00:00,10059,10172.5,10041,10111.5,11554
2017-11-17,00:00:00,10056,10103.5,9989.5,10022,11986
2017-11-20,00:00:00,9987,10060.5,9962.5,10013.5,9287
2017-11-21,00:00:00,10002.5,10071.5,9986.5,10010,9777
2017-11-22,00:00:00,10019,10091,9998.5,10006,9128
2017-11-23,00:00:00,10003,10078.5,9977.5,10043,8249
2017-11-24,00:00:00,10039,10123.5,10029,10052,8553
2017-11-27,00:00:00,10039,10134.5,10011.5,10065,10422
2017-11-28,00:00:00,10050,10193.5,10050,10161,9754
2017-11-29,00:00:00,10208,10312,10192.5,10239,11238
2017-11-30,00:00:00,10243,10322.5,10197.5,10222,12588
2017-12-01,00:00:00,10207,10244.5,10059,10137.5,19579
2017-12-04,00:00:00,10210,10249,10128,10221.5,11561
2017-12-05,00:00:00,10204.5,10244.5,10160,10185,10164
2017-12-06,00:00:00,10169,10199,10094,10182.5,10983
2017-12-07,00:00:00,10199.5,10275,10170.5,10264.5,9357
2017-12-08,00:00:00,10296,10377,10294,10336.5,9662
2017-12-11,00:00:00,10330.5,10346,10282,10319,7591
2017-12-12,00:00:00,10296.2,10321.2,10242.2,10273.5,8211
2017-12-13,00:00:00,10272,10353,10246.5,10251.5,9038
2017-12-14,00:00:00,10240.5,10292.5,10160,10164,13948
2017-12-15,00:00:00,10181,10215,10114.5,10151.5,11042
2017-12-18,00:00:00,10186,10254.5,10185.5,10244,9387
2017-12-19,00:00:00,10248,10279.5,10218,10239.5,6873
2017-12-20,00:00:00,10262.5,10262.5,10134,10204.5,10333
2017-12-21,00:00:00,10192,10323,10139,10309,8170
2017-12-22,00:00:00,10201,10235,10080,10179.5,7985
2017-12-27,00:00:00,10197.5,10209.5,10128,10135.5,6138
2017-12-28,00:00:00,10134,10159.5,10070.5,10076.5,5237
2017-12-29,00:00:00,10099,10109.5,10025,10049,6001
2018-01-02,00:00:00,10062,10091.5,10010.5,10078,8430
2018-01-03,00:00:00,10093,10146.5,10078,10117,6919
2018-01-04,00:00:00,10128,10325,10128,10306.5,7838
2018-01-05,00:00:00,10311,10418,10300.5,10405.5,7784
2018-01-08,00:00:00,10414.5,10454.5,10381.5,10384.5,7171
2018-01-09,00:00:00,10387.5,10461,10384,10439.5,6428
2018-01-10,00:00:00,10431,10473.5,10396,10433,9722
2018-01-11,00:00:00,10442,10471,10397,10448.5,8698
2018-01-12,00:00:00,10473,10490.5,10439.5,10455,8324
2018-01-15,00:00:00,10471,10490.5,10441,10457,5556
2018-01-16,00:00:00,10478,10573,10463.5,10475.5,4432
2018-01-17,00:00:00,10473.5,10504,10439.5,10485.5,3872
2018-01-18,00:00:00,10493.5,10512,10395.5,10436.5,3810
2018-01-19,00:00:00,10420,10495,10391,10481.5,3941
2018-01-22,00:00:00,10484,10610,10484,10607.5,3395
2018-01-23,00:00:00,10620,10652,10584,10604,3413
2018-01-24,00:00:00,10596.5,10617.5,10539.5,10557.5,4069
2018-01-25,00:00:00,10548,10631,10547,10600.5,4507
2018-01-26,00:00:00,10629,10632.5,10559,10618,3401
2018-01-29,00:00:00,10622,10622,10539.5,10571,3615
2018-01-30,00:00:00,10458.5,10502.5,10416,10426.5,4381
2018-01-31,00:00:00,10437.5,10480,10420,10468.5,3507
2018-02-01,00:00:00,10484,10540,10355,10409.5,4782
2018-02-02,00:00:00,10411,10421.5,10177,10178,5514
2018-02-05,00:00:00,10096,10171,9967.5,9995,16773
2018-02-06,00:00:00,9630,9961,9617,9858.5,31730
2018-02-07,00:00:00,9928,9989.5,9809,9947.5,21222
2018-02-08,00:00:00,9942,9959,9671,9744,21433
2018-02-09,00:00:00,9664,9749,9436.5,9496,8751
2018-02-12,00:00:00,9688,9827.5,9687,9827.5,7333
2018-02-13,00:00:00,9801,9801,9641,9683.5,6318
2018-02-14,00:00:00,9691,9743,9594,9734.5,6431
2018-02-15,00:00:00,9759,9828,9671,9734.5,5519
2018-02-16,00:00:00,9751,9856,9740,9821,4818
2018-02-19,00:00:00,9852,9906.5,9790,9794,3044
2018-02-20,00:00:00,9814.5,9899,9796,9887.5,3694
2018-02-21,00:00:00,9860.5,9881.5,9775,9827.5,3938
2018-02-22,00:00:00,9759,9902,9734,9847.5,4539
2018-02-23,00:00:00,9884,9907,9765,9837.5,4254
2018-02-26,00:00:00,9864,9941,9837.5,9941,3491
2018-02-27,00:00:00,9936,9938,9857,9875,4132
2018-02-28,00:00:00,9848,9886.5,9822.5,9852.5,3540
2018-03-01,00:00:00,9775,9816,9658.5,9658.5,5029
2018-03-02,00:00:00,9670,9683.5,9504,9561.5,5239
2018-03-05,00:00:00,9524.5,9610.5,9477,9606.5,4880
2018-03-06,00:00:00,9627,9672.5,9583,9613,4423
2018-03-07,00:00:00,9547,9613.5,9493.5,9604,4824
2018-03-08,00:00:00,9625.5,9664.5,9559.5,9643.5,4309
2018-03-09,00:00:00,9652,9702,9627.5,9689.5,3594
2018-03-12,00:00:00,9724,9756,9700.5,9707,2908
2018-03-13,00:00:00,9717.5,9809.5,9642,9652.5,3636
2018-03-14,00:00:00,9654,9734.5,9631,9691.5,3982
2018-03-15,00:00:00,9689,9723.5,9642.5,9678.5,2458
2018-03-16,00:00:00,9697,9797,9669.5,9743.5,3307
2018-03-19,00:00:00,9734.5,9746.5,9609,9620.5,6646
2018-03-20,00:00:00,9676,9689.5,9603,9681.5,8540
2018-03-21,00:00:00,9687,9700,9586.5,9603,9191
2018-03-22,00:00:00,9608.5,9647.5,9429.5,9433.5,15739
2018-03-23,00:00:00,9352.5,9423,9324,9333,17901
2018-03-26,00:00:00,9361,9460,9343,9398.5,12408
2018-03-27,00:00:00,9483,9516,9437.5,9447.5,11440
2018-03-28,00:00:00,9371,9602,9344.5,9584.5,18294
2018-03-29,00:00:00,9553.5,9655,9553,9621,11695
2018-04-03,00:00:00,9496,9576,9492,9549,12714
2018-04-04,00:00:00,9541,9559,9414.5,9520,13927
2018-04-05,00:00:00,9606.5,9759.5,9595.5,9714.5,11159
2018-04-06,00:00:00,9635.5,9733.5,9635.5,9660.5,11715
2018-04-09,00:00:00,9696,9787,9696,9768,3484
2018-04-10,00:00:00,9802,9821.5,9729,9745.5,4223
2018-04-11,00:00:00,9726,9785,9711,9727.5,3489
2018-04-12,00:00:00,9719.5,9765.5,9701.5,9725,3506
2018-04-13,00:00:00,9743.5,9857,9735,9759,3223
2018-04-16,00:00:00,9780,9793.5,9742.5,9782,3064
2018-04-17,00:00:00,9782.5,9822.7,9761.5,9811.2,3219
2018-04-18,00:00:00,9822.1,9865,9796.5,9857,3272
2018-04-19,00:00:00,9866,9898,9836.5,9851.5,3140
2018-04-20,00:00:00,9861.5,9903,9842,9866.5,3349
2018-04-23,00:00:00,9889,9929.5,9859,9921,2946
2018-04-24,00:00:00,9939.5,9939.5,9796.5,9801,3856
2018-04-25,00:00:00,9807,9855,9791,9847,3982
2018-04-26,00:00:00,9861.5,9928,9848,9924.5,3141
2018-04-27,00:00:00,9897,9943,9880.5,9919,3167
2018-04-30,00:00:00,9931.5,9994,9912.5,9959.5,3208
2018-05-02,00:00:00,9968,10097.5,9967.5,10078.5,3230
2018-05-03,00:00:00,10069.5,10094.5,10014.5,10056,3553
2018-05-04,00:00:00,10059.5,10124,10026,10123.5,3435
2018-05-07,00:00:00,10141,10152,10102.5,10131.5,2653
2018-05-08,00:00:00,10134,10178,10089,10150.5,3673
2018-05-09,00:00:00,10175,10250,10135,10248.5,3228
2018-05-10,00:00:00,10250.5,10255.5,10187,10241,3341
2018-05-11,00:00:00,10259,10283,10239.5,10254,3717
2018-05-14,00:00:00,10282,10290,10213,10250.5,3249
2018-05-15,00:00:00,10236.5,10263,10156,10199.5,3930
2018-05-16,00:00:00,10207,10207,10088.5,10128,3708
2018-05-17,00:00:00,10127,10215.5,10107.5,10188,3321
2018-05-18,00:00:00,10211.5,10213.5,10088.5,10107.5,3843
2018-05-21,00:00:00,10147,10162,10046.5,10057,3033
2018-05-22,00:00:00,10068.5,10156,10046.5,10133,3461
2018-05-23,00:00:00,10105,10111,9953,10016.5,4246
2018-05-24,00:00:00,10023.5,10091.5,9962,10018,3916
2018-05-25,00:00:00,10044,10046.5,9721.5,9829,4727
2018-05-28,00:00:00,9881,9920,9730.5,9755.5,3837
2018-05-29,00:00:00,9751,9770.5,9437.5,9441,5859
2018-05-30,00:00:00,9487.5,9613,9469.5,9584,5651
2018-05-31,00:00:00,9570.5,9645.5,9398.5,9506,5530
2018-06-01,00:00:00,9520.5,9675,9514.5,9641.5,4757
2018-06-04,00:00:00,9665.5,9830.7,9644,9729.2,3836
2018-06-05,00:00:00,9732.2,9810.7,9667.7,9667.7,3854
2018-06-06,00:00:00,9692.7,9825.7,9652.2,9825.7,4064
2018-06-07,00:00:00,9825.2,9940.2,9748.2,9755.7,3844
2018-06-08,00:00:00,9765.2,9775.7,9710.2,9759.2,4139
2018-06-11,00:00:00,9748.7,9936.2,9743.7,9908.2,3435
2018-06-12,00:00:00,9907.2,9958.7,9898.2,9913.7,3545
2018-06-13,00:00:00,9905.7,9920.7,9837.2,9902.2,3352
2018-06-14,00:00:00,9875.7,10001.2,9836.7,9993.2,3500
2018-06-15,00:00:00,9979.2,9991.2,9796.2,9856.7,4211
2018-06-18,00:00:00,9819.7,9863.2,9711.2,9754.7,3484
2018-06-19,00:00:00,9653.2,9806.7,9596.2,9788.2,4211
2018-06-20,00:00:00,9844.7,9876.7,9783.7,9802.2,3489
2018-06-21,00:00:00,9821.7,9842.7,9679.7,9722.2,4396
2018-06-22,00:00:00,9723.2,9797.2,9719.7,9784.2,3365
2018-06-25,00:00:00,9699.7,9730.7,9611.7,9640.7,4150
2018-06-26,00:00:00,9653.2,9696.2,9615.2,9675.7,3873
2018-06-27,00:00:00,9652.7,9725.2,9505.7,9623.7,4715
2018-06-28,00:00:00,9595.2,9670.7,9534.5,9586.5,4658
2018-06-29,00:00:00,9654.2,9738.2,9602.2,9604.7,4177
